<svg width="8" height="4" viewBox="0 0 8 4" fill="none" xmlns="http://www.w3.org/2000/svg">
<path d="M0.0818544 3.9227C0.192116 4.02576 0.371291 4.02576 0.481552 3.9227L3.99613 0.63124L7.51761 3.92271C7.62787 4.02576 7.80704 4.02576 7.9173 3.92271C8.02757 3.81965 8.02757 3.65217 7.9173 3.54911L4.20287 0.0772945C4.14774 0.0257646 4.07883 -8.87992e-08 4.00303 -9.5125e-08C3.93411 -1.00876e-07 3.85831 0.0257646 3.80318 0.0772945L0.0887456 3.54911C-0.0284071 3.65217 -0.0284071 3.81965 0.0818544 3.9227Z" fill="black"/>
</svg>
