{
    "1": {
        "map": "Магазин парфюмерии и косметики ИЛЬ ДЕ БО",
        "lat": "37.633986",
        "lon": "55.757744",
        "name": "ИЛЬ де БОТЭ",
        "url": "2011-12-29"
    },
    "2": {
        "map": "Музей-усадьба «Архангельское»",
        "lat": "37.284211",
        "lon": "55.787409",
        "name": "Mail.ru",
        "url": "2011-12-21"
    },
    "3": {
        "map": "ЦВК «Экспоцентр»",
        "lat": "37.545071",
        "lon": "55.751948",
        "name": "РИФ 2011",
        "url": "2012-01-04"
    },
    "4": {
        "map": "Всероссийский молодёжный форум Селигер",
        "lat": "33.161486",
        "lon": "57.187448 ",
        "name": "Банк УРАЛСИБ - Селигер 2011",
        "url": "2011-08-22"
    },
    "5": {
        "map": "Бизнес-центр «Башня 2000»",
        "lat": "37.544573",
        "lon": "55.746013",
        "name": "Презентация душевой кабины нового поколения S",
        "url": "2012-01-30"
    },
    "6": {
        "map": "«Центр фотографии им. братьев Люмьер»",
        "lat": "37.610132",
        "lon": "55.739748",
        "name": "Центр фотографии братьев Люмьер",
        "url": "2012-01-02"
    },
    "7": {
        "map": "Супермаркет \"Виктория\"",
        "lat": "37.578042",
        "lon": "55.664746",
        "name": "BTL-акция по кофе в супермаркетах \"Виктория\"",
        "url": "2011-12-20"
    },
    "8": {
        "map": "ЦВК «Экспоцентр»",
        "lat": "37.545071",
        "lon": "55.751948",
        "name": "ПРОДЭкспо 2012,  Экспоцентр, стенд компании \"",
        "url": "2012-02-12"
    },
    "9": {
        "map": "ТРЦ «Европейский»",
        "lat": "37.566094",
        "lon": "55.744603",
        "name": "Презентация ноутбуков Lenovo в ТЦ \"Европейски",
        "url": "2012-03-01"
    },
    "10": {
        "map": "Гостиница «Космос»",
        "lat": "37.647186",
        "lon": "55.822142",
        "name": "Выездной бар для строительной компании \"Техно",
        "url": "2012-03-02"
    },
    "11": {
        "map": "Бизнес центр «Преображенская площадь 8»",
        "lat": "37.712692",
        "lon": "55.795101",
        "name": "Женский день в компании \"Техносила\"",
        "url": "2012-02-28"
    },
    "12": {
        "map": "Выставочный центр «Крокус Экспо»",
        "lat": "37.388374",
        "lon": "55.824714",
        "name": "Бар для компании Coca-Cola на выставке METRO ",
        "url": "2012-03-14"
    },
    "13": {
        "map": "«Центральный дом предпринимателя»",
        "lat": "37.653968",
        "lon": "55.763570",
        "name": "Кислородный бар на стенде ABBOTT. VIII Москов",
        "url": "2012-01-13"
    },
    "14": {
        "map": "Пляжный клуб «Royal Bar»",
        "lat": "37.479459",
        "lon": "55.836691",
        "name": "Деловая встреча посольства Турции",
        "url": "2012-02-29"
    },
    "15": {
        "map": "Автосалон «Ауди центр Таганка»",
        "lat": "37.684967",
        "lon": "55.730597",
        "name": "Акция по повышению лояльности клиентов AUDI",
        "url": "2012-03-03"
    },
    "16": {
        "map": "ТРЦ «Галерея»",
        "lat": "30.360530",
        "lon": "59.927699",
        "name": "Презентация ноутбуков Lenovo в Санкт-Петербур",
        "url": "2012-02-26"
    },
    "17": {
        "map": "Бизнес-центр «Digital October»",
        "lat": "37.609086",
        "lon": "55.740389",
        "name": "Бар на стенде компании Direct Advert . Конфер",
        "url": "2012-02-25"
    },
    "18": {
        "map": "Центральный офис «АЛВИСА Менеджмент»",
        "lat": "37.559119",
        "lon": "55.742166",
        "name": "Фреш-бар для компании Алвиса",
        "url": "2012-03-15"
    },
    "19": {
        "map": "ЦВК «Экспоцентр»",
        "lat": "37.545071",
        "lon": "55.751948",
        "name": "Выставка МосБилд 2012 - Стенд кампании КОФ-ПА",
        "url": "2012-03-10"
    },
    "20": {
        "map": "ЦВК «Экспоцентр»",
        "lat": "37.545071",
        "lon": "55.751948",
        "name": "Выставка МосБилд 2012 - Стенд кампании Barlin",
        "url": "2012-03-11"
    },
    "21": {
        "map": "Художественная галерея «Гостиный двор»",
        "lat": "37.625893",
        "lon": "55.753700",
        "name": "Volvo Fashion Week",
        "url": "2012-03-09"
    },
    "22": {
        "map": "Автосалон «Infiniti Авто Спец Центр Химк",
        "lat": "37.423891",
        "lon": "55.897328",
        "name": "Презентация в автосалоне Infiniti",
        "url": "2012-03-17"
    },
    "23": {
        "map": "Бизнес-центр «Digital October»",
        "lat": "37.609086",
        "lon": "55.740389",
        "name": "Молекулярный бар на Digital October",
        "url": "2012-03-16"
    },
    "24": {
        "map": "«Центральный дом предпринимателя»",
        "lat": "37.653968",
        "lon": "55.763570",
        "name": "Московский Деловой Форум 2012",
        "url": "2012-03-13"
    },
    "25": {
        "map": "Гостиница «Ренессанс Москва Монарх»",
        "lat": "37.559974",
        "lon": "55.783908",
        "name": "Всемирный конгресс по педиатрии и детскому зд",
        "url": "2012-03-18"
    },
    "26": {
        "map": "Автосалон «Citroen Авто Спец Центр Химки",
        "lat": "37.424119",
        "lon": "55.897075",
        "name": "Коктейль бар в автосалоне Citroen",
        "url": "2012-03-19"
    },
    "27": {
        "map": "Автосалон «Volkswagen АВИЛОН»",
        "lat": "37.716421",
        "lon": "55.715094",
        "name": "День открытых дверей в автосалоне Volkswagen ",
        "url": "2012-03-21"
    },
    "28": {
        "map": "Автосалон «Ауди центр Варшавка»",
        "lat": "37.620452",
        "lon": "55.650228",
        "name": "Ночь открытых дверей Audi на Варшавке",
        "url": "2012-03-22"
    },
    "29": {
        "map": "Салон сотовой связи «МТС»",
        "lat": "37.584400",
        "lon": "55.747436",
        "name": "МТС - бар на презентации Samsung Galaxy",
        "url": "2012-03-23"
    },
    "30": {
        "map": "Автосалон «Toyota Центр Ясенево»",
        "lat": "37.503784",
        "lon": "55.598775",
        "name": "Презентация нового автомобиля Alphard",
        "url": "2012-03-24"
    },
    "31": {
        "map": "Автосалон «Независимость Mazda (Ярославс",
        "lat": "37.685181",
        "lon": "55.859673",
        "name": "Мобильный бар в автосалоне Mazda",
        "url": "2012-03-26"
    },
    "32": {
        "map": "Развлекательный центр «Golden Palace»",
        "lat": "37.579122",
        "lon": "55.782605",
        "name": "Рекорды рынка недвижимости",
        "url": "2012-03-27"
    },
    "33": {
        "map": "Автосалон «БМВ независимость Белая дача»",
        "lat": "37.835562",
        "lon": "55.649565",
        "name": "BMW: презентация нового концепт-кара",
        "url": "2012-03-28"
    },
    "34": {
        "map": "Автосалон «Ауди Центр Юг»",
        "lat": "37.800591",
        "lon": "55.626860",
        "name": "Автосалон Audi: кислородный бар",
        "url": "2012-03-29"
    },
    "35": {
        "map": "Выставочный комплекс «Ленэкспо»",
        "lat": "30.236189",
        "lon": "59.929957",
        "name": "ПМЭФ 2012: Кислородные коктейли на стенде РИА",
        "url": "2012-03-31"
    },
    "36": {
        "map": "Салон американского декора стен «Hudson",
        "lat": "37.528764",
        "lon": "55.776799",
        "name": "Корпоратив компании \"Hudson Home\"",
        "url": "2012-04-01"
    },
    "37": {
        "map": "Выставочный комплекс «Ленэкспо»",
        "lat": "30.236189",
        "lon": "59.929957",
        "name": "ПМЭФ 2012: PEPSICO CAFE",
        "url": "2012-04-25"
    },
    "38": {
        "map": "Территория «ВВЦ»",
        "lat": "37.613006",
        "lon": "55.819657",
        "name": "Юбилей компании SAP",
        "url": "2012-04-10"
    },
    "39": {
        "map": "Ландшафтный парк «Крылатские холмы»",
        "lat": "37.418703",
        "lon": "55.754300",
        "name": "Redbull: Гонки на тарантасах по Крылатским хо",
        "url": "2012-04-09"
    },
    "40": {
        "map": "Всероссийский выставочный центр «ВВЦ»",
        "lat": "37.633699",
        "lon": "55.828721",
        "name": "Пивной фестиваль на ВДНХ",
        "url": "2012-04-06"
    },
    "41": {
        "map": "Ресторан «Империал Парк Отель & SPA»",
        "lat": "37.205650",
        "lon": "55.534724",
        "name": "Cомелье в \"Империал отель\"",
        "url": "2012-04-11"
    },
    "42": {
        "map": "Автосалон «Ауди Центр Таганка»",
        "lat": "37.684967",
        "lon": "55.730597",
        "name": "Бар в автосалоне Audi на Таганке ",
        "url": "2012-04-07"
    },
    "43": {
        "map": "Автосалон «Ауди Центр Таганка»",
        "lat": "37.684967",
        "lon": "55.730597",
        "name": "Тропический бар в Audi",
        "url": "2012-04-12"
    },
    "44": {
        "map": "Пляж «Серебряный бор»",
        "lat": "37.407374",
        "lon": "55.777973",
        "name": "Поезд любви для компании Billa ",
        "url": "2012-04-13"
    },
    "45": {
        "map": "Площадка «Пироговский Пляж»",
        "lat": "37.705443",
        "lon": "55.982670",
        "name": "Банк \"Смоленский\": корпоративное мероприятие",
        "url": "2012-04-15"
    },
    "46": {
        "map": "Автосалон «Рольф Mitsubishi»",
        "lat": "37.580079",
        "lon": "55.861474",
        "name": "Презентация в автосалоне Рольф",
        "url": "2012-04-16"
    },
    "47": {
        "map": "Ресторан «Павильон» на Патриарших",
        "lat": "37.592776",
        "lon": "55.763491",
        "name": "Открытие фотовыставки \"Лесные истории\"",
        "url": "2012-04-17"
    },
    "48": {
        "map": "Поселок «Суханово Парк»",
        "lat": "37.642600",
        "lon": "55.524001",
        "name": "Корпоратив в Суханово Парк",
        "url": "2012-04-18"
    },
    "49": {
        "map": "Торгово-развлекательный комплекс «Афимол",
        "lat": "37.539641",
        "lon": "55.749001",
        "name": "Вечер с Pepsi",
        "url": "2012-04-20"
    },
    "50": {
        "map": "Выставочный центр «Крокус Экспо»",
        "lat": "37.388374",
        "lon": "55.824714",
        "name": "Стенд \"Сбербанк\" на Автофоруме в Крокус-Экспо",
        "url": "2012-04-21"
    },
    "51": {
        "map": "Красная площадь",
        "lat": "37.620784",
        "lon": "55.753933",
        "name": "Кофе на Спасской башне 2012",
        "url": "2012-04-22"
    },
    "52": {
        "map": "Юсуповский дворец",
        "lat": "37.649426",
        "lon": "55.766228",
        "name": "Премия \"Кейтеринг года\" 2012",
        "url": "2012-04-23"
    },
    "53": {
        "map": "Кинотеатр «35mm»",
        "lat": "37.653968",
        "lon": "55.763570",
        "name": "Презентация Группы Компаний \"КИН\"",
        "url": "2012-04-24"
    },
    "54": {
        "map": "Автосалон «МБ-Измайлово»",
        "lat": "37.869819",
        "lon": "55.784594",
        "name": "Бар в автосалоне MERCEDES-BENZ Измайлово ",
        "url": "2013-01-08"
    },
    "55": {
        "map": "Автосалон «Ауди Центр Таганка»",
        "lat": "37.684967",
        "lon": "55.730597",
        "name": "Oktoberfest в автосалоне Audi \"Таганка\"",
        "url": "2012-04-26"
    },
    "56": {
        "map": "Офис компании «METRO Cash&Carry»",
        "lat": "37.447366",
        "lon": "55.875822",
        "name": "Создание линейки коктейлей для компании METRO",
        "url": "2013-01-14"
    },
    "57": {
        "map": "ЦВК «Экспоцентр»",
        "lat": "37.545071",
        "lon": "55.751948",
        "name": "Выставка агропродмаш 2012: Стенд ГК ПТИ",
        "url": "2012-04-30"
    },
    "58": {
        "map": "Ресторан «Монумент»",
        "lat": "37.639098",
        "lon": "55.758454",
        "name": "Открытие ресторана \"Монумент\"",
        "url": "2012-05-01"
    },
    "59": {
        "map": "Автосалон «ŠKODA на Обручева»",
        "lat": "37.529761",
        "lon": "55.658515",
        "name": "Бар в автосалоне Skoda",
        "url": "2012-05-02"
    },
    "60": {
        "map": "Бизнес центр «Кантри Парк»",
        "lat": "37.432920",
        "lon": "55.881534",
        "name": "Фреш-бар для компании \"Нутриция\"",
        "url": "2012-03-13"
    },
    "61": {
        "map": "Ресторан «Moe`s»",
        "lat": "37.661782",
        "lon": "55.846333",
        "name": "Открытие ресторана \"Мое's\"",
        "url": "2012-05-03"
    },
    "62": {
        "map": "«Клуб единоборств №1»",
        "lat": "37.739390",
        "lon": "55.806659",
        "name": "Открытие \"клуба единоборств №1\"",
        "url": "2013-01-09"
    },
    "63": {
        "map": "Гостиница «Космос»",
        "lat": "37.647186",
        "lon": "55.822142",
        "name": "Фреш-бар на выставке в ГК \"Космос\"",
        "url": "2012-04-04"
    },
    "64": {
        "map": "Гостиница «Рэдиссон Славянская»",
        "lat": "37.566840",
        "lon": "55.741715",
        "name": "Международная выставка Internet Trading EXPO ",
        "url": "2012-11-06"
    },
    "65": {
        "map": "Всероссийский выставочный центр «ВВЦ»",
        "lat": "37.633699",
        "lon": "55.828721",
        "name": "Выставка \"Металл-Экспо\". Стенд Челябинский Тр",
        "url": "2012-11-12"
    },
    "66": {
        "map": "Спортивный комплекс «Олимпийский»",
        "lat": "37.626531",
        "lon": "55.781070",
        "name": "Выставка ExpoСlean-2012. Стенд Виконт",
        "url": "2012-11-14"
    },
    "67": {
        "map": "Всероссийский выставочный центр «ВВЦ»",
        "lat": "37.633699",
        "lon": "55.828721",
        "name": "Стенд Металл Проект",
        "url": "2012-11-15"
    },
    "68": {
        "map": "Ресторан «Веранда 32.05»",
        "lat": "37.608780",
        "lon": "55.770316",
        "name": "Мастер-класс по грогам для компании Geberit",
        "url": "2012-12-07"
    },
    "69": {
        "map": "«Центральный дом предпринимателя»",
        "lat": "37.653968",
        "lon": "55.763570",
        "name": "V Российский Общенациональный Офтальмологичес",
        "url": "2012-12-06"
    },
    "70": {
        "map": "Клуб «Облака»",
        "lat": "37.487466",
        "lon": "55.731698",
        "name": "Вечеринки проекта \"ЛЕД Very Special\"",
        "url": "2012-11-27"
    },
    "71": {
        "map": "Музей ретроавтомобилей «Автовилль»",
        "lat": "37.577343",
        "lon": "55.730936",
        "name": "Презентация AUDI A3 в Автовилле",
        "url": "2013-01-13"
    },
    "72": {
        "map": "Ресторан «Яръ»",
        "lat": "37.569037",
        "lon": "55.784760",
        "name": "Сомелье в ресторане отеля \"Яръ\"",
        "url": "2012-12-15"
    },
    "73": {
        "map": "Офис компании «Нутриция»",
        "lat": "37.309945",
        "lon": "55.824324",
        "name": "Пирамида для компании \"Нутриция\"",
        "url": "2012-11-11"
    },
    "74": {
        "map": "Клуб «Icon»",
        "lat": "37.611024",
        "lon": "55.741342",
        "name": "Гангстер-бар в клубе ICON",
        "url": "2013-01-10"
    },
    "75": {
        "map": "Автосалон «Рольф Химки Mazda»",
        "lat": "37.412356",
        "lon": "55.905788",
        "name": "Бар в автосалоне Mazda",
        "url": "2013-01-05"
    },
    "76": {
        "map": "Клуб «Lookin Rooms»",
        "lat": "37.604283",
        "lon": "55.766267",
        "name": "Тропический бар в Lookin Rooms",
        "url": "2013-01-11"
    },
    "77": {
        "map": "Клуб-ресторан «Тропикана»",
        "lat": "37.585063",
        "lon": "55.751938",
        "name": "Десерт-бар на презентации Palmolive ",
        "url": "2013-01-12"
    },
    "78": {
        "map": "ЦВК «Экспоцентр»",
        "lat": "37.545071",
        "lon": "55.751948",
        "name": "Чайная церемония в китайском стиле на выставк",
        "url": "2012-11-16"
    },
    "79": {
        "map": "Автосалон «Audi Центр Север»",
        "lat": "37.463741",
        "lon": "55.863638",
        "name": "Сомелье и торседор в AUDI",
        "url": "2013-02-22"
    },
    "80": {
        "map": "Офис компании «Nestle»",
        "lat": "37.634709",
        "lon": "55.730391",
        "name": "Мастер-класс по кофе для Nescafé",
        "url": "2013-03-16"
    },
    "81": {
        "map": "Усадьба «Волковых-Юсуповых»",
        "lat": "37.649427",
        "lon": "55.766225",
        "name": "Жженка в Юсуповском дворце",
        "url": "2013-03-11"
    },
    "82": {
        "map": "Автосалон «Ауди центр Таганка»",
        "lat": "37.684967",
        "lon": "55.730597",
        "name": "Масленица в автосалоне Audi \"Таганка\"",
        "url": "2013-03-15"
    },
    "83": {
        "map": "Автосалон «Audi Центр Север»",
        "lat": "37.463741",
        "lon": "55.863638",
        "name": "Десерт бар и сомелье в салоне Audi Центр Севе",
        "url": "2013-03-17"
    },
    "84": {
        "map": "Офис компании «Росатом»",
        "lat": "37.623660",
        "lon": "55.739898",
        "name": "Бар \"8 марта\" ГК РОСАТОМ",
        "url": "2013-03-07"
    },
    "85": {
        "map": "Выставочный комплекс «Ленэкспо»",
        "lat": "30.236189",
        "lon": "59.929957",
        "name": "Выставка Junwex Санкт-Петербург 2013",
        "url": "2013-02-05"
    },
    "86": {
        "map": "Автосалон «МБ-Измайлово»",
        "lat": "37.869819",
        "lon": "55.784594",
        "name": "Презентация А-Класса МБ-Измайлово",
        "url": "2013-03-29"
    },
    "87": {
        "map": "Автосалон «Фольксваген Центр Германика»",
        "lat": "37.420111",
        "lon": "55.900123",
        "name": "Молекулярный бар в автосалоне Volkswagen",
        "url": "2013-04-05"
    },
    "88": {
        "map": "Клуб «Icon»",
        "lat": "37.611024",
        "lon": "55.741342",
        "name": "Event Revolution 2013",
        "url": "2013-04-09"
    },
    "89": {
        "map": "Выставочный центр «Крокус Экспо»",
        "lat": "37.388374",
        "lon": "55.824714",
        "name": "\"Intercharm\" - парфюмерно-косметическая выста",
        "url": "2013-04-17"
    },
    "90": {
        "map": "Автосалон «ŠKODA Химки»",
        "lat": "37.425014",
        "lon": "55.896417",
        "name": "ŠKODA WEEKEND",
        "url": "2013-05-16"
    },
    "91": {
        "map": "Клуб «Soho Rooms»",
        "lat": "37.562130",
        "lon": "55.732900",
        "name": "Молекулярный бар в клубе SOHO ROOMS",
        "url": "2013-04-16"
    },
    "92": {
        "map": "Коттеджный поселок «Раздоры»",
        "lat": "37.300143",
        "lon": "55.746298",
        "name": "Ртутная свадьба - \"Бар в Барвихе\"",
        "url": "2013-05-24"
    },
    "93": {
        "map": "Пляжный клуб «Royal Bar»",
        "lat": "37.479459",
        "lon": "55.836691",
        "name": "Корпоратив на пляже Royal Bar ",
        "url": "2013-06-06"
    },
    "94": {
        "map": "Отель «Radisson Hotels & Resorts»",
        "lat": "37.566386",
        "lon": "55.752816",
        "name": "Джаз фестиваль",
        "url": "2013-06-26"
    },
    "95": {
        "map": "Парк «Щемиловский»",
        "lat": "37.611072",
        "lon": "55.775897",
        "name": "Fresh Bar журнала JOY",
        "url": "2013-06-25"
    },
    "96": {
        "map": "Усадьба «Влахернское-Кузьминки»",
        "lat": "37.795044",
        "lon": "55.690225",
        "name": "Жженка и настойки в усадьбe \"Голицыно\"",
        "url": "2013-06-24"
    },
    "97": {
        "map": "Выставочный комплекс «Ленэкспо»",
        "lat": "30.236189",
        "lon": "59.929957",
        "name": "PepsiCo Café 2013",
        "url": "2013-06-21"
    },
    "98": {
        "map": "Пляж «Серебряный бор»",
        "lat": "37.407374",
        "lon": "55.777973",
        "name": "Коктейль бар \"Серебряный бор\"",
        "url": "2013-07-04"
    },
    "99": {
        "map": "ТРЦ «Метрополис»",
        "lat": "37.497669",
        "lon": "55.823159",
        "name": "Мастер-класс по коктейлям в \"РИВ ГОШ\"",
        "url": "2013-07-12"
    },
    "100": {
        "map": "Пляж «Серебряный бор»",
        "lat": "37.407374",
        "lon": "55.777973",
        "name": "Бармен-шоу Bar-street",
        "url": "2013-07-18"
    },
    "101": {
        "map": "«METRO CASH&CARRY» Черная грязь",
        "lat": "37.319228",
        "lon": "55.972609",
        "name": "Мастер-класс для клиентов METRO от BAR-STREET",
        "url": "2013-07-19"
    },
    "102": {
        "map": "Комплекс отдыха «Рыбацкая деревня»",
        "lat": "37.628549",
        "lon": "55.840289",
        "name": "Пивной бар \"Рыбацкая деревня\"",
        "url": "2013-08-07"
    },
    "103": {
        "map": "Летняя площадка «Викинг»",
        "lat": "37.414227",
        "lon": "55.825984",
        "name": "Пивной бар для \"Балтийской строительной компа",
        "url": "2013-08-08"
    },
    "104": {
        "map": "Пляж «Строгино»",
        "lat": "37.426036",
        "lon": "55.803113",
        "name": "Red Bull Flugtag 2013 в Москве",
        "url": "2013-07-27"
    },
    "105": {
        "map": "Офис компании «Unilever RUS»",
        "lat": "37.551114",
        "lon": "55.763316",
        "name": "Мастер-класс по чаю для компании «Unilever RU",
        "url": "2013-08-18"
    },
    "106": {
        "map": "Старый офис компании «Bar-street»",
        "lat": "37.522003",
        "lon": "55.816670",
        "name": "Новый уникальный бар от BAR-STREET",
        "url": "2013-08-27"
    },
    "107": {
        "map": "Отель «Courtyard Moscow City Center»",
        "lat": "37.604040",
        "lon": "55.757999",
        "name": "Золотой бар в \"Кортъярд Марриотт\"",
        "url": "2013-09-02"
    },
    "108": {
        "map": "Автосалон «Фольксваген Центр РУС-ЛАН»",
        "lat": "37.483501",
        "lon": "55.648397",
        "name": "Чайный бар в автосалонах Volkswagen",
        "url": "2013-09-13"
    },
    "109": {
        "map": "Автосалон «Ауди Центр Юго-Запад»",
        "lat": "37.569252",
        "lon": "55.700277",
        "name": "Бар в автосалоне AUDI",
        "url": "2013-09-10"
    },
    "110": {
        "map": "Автосалон «Рольф JEEP»",
        "lat": "37.580079",
        "lon": "55.861474",
        "name": "Бар в автосалоне Рольф \"Jeep\"",
        "url": "2013-09-20"
    },
    "111": {
        "map": "Автосалон «Евросиб BMW Лахта»",
        "lat": "30.225740",
        "lon": "59.983856",
        "name": "Чайный бар в БМВ Санкт-Петербург",
        "url": "2013-09-21"
    },
    "112": {
        "map": "Автосалон «Евросиб Сервис Центр»",
        "lat": "30.337870",
        "lon": "59.912010",
        "name": "Бар в автосалоне БМВ Санкт-Петербург",
        "url": "2013-09-19"
    },
    "113": {
        "map": "Торгово-развлекательный комплекс «Афимол",
        "lat": "37.539641",
        "lon": "55.749001",
        "name": "Кислородный бар на презентации мультфильма «А",
        "url": "2013-09-23"
    },
    "114": {
        "map": "Автосалон «Порше центр Таганка»",
        "lat": "37.685219",
        "lon": "55.731855",
        "name": "\"Сливовый уикенд\" в автосалоне Porsche",
        "url": "2013-09-27"
    },
    "115": {
        "map": "Автосалон «Ауди Центр Таганка»",
        "lat": "37.684967",
        "lon": "55.730597",
        "name": "\"Сливовый уикенд\" в автосалоне AUDI",
        "url": "2013-09-26"
    },
    "116": {
        "map": "Автосалон «Ауди центр Варшавка»",
        "lat": "37.620452",
        "lon": "55.650228",
        "name": "Октоберфест в автосалоне AUDI",
        "url": "2013-09-25"
    },
    "117": {
        "map": "Автосалон «БМВ независимость Белая дача»",
        "lat": "37.835562",
        "lon": "55.649565",
        "name": "Бар в автосалоне БМВ",
        "url": "2013-09-28"
    },
    "118": {
        "map": "Гостиница «Космос»",
        "lat": "37.647186",
        "lon": "55.822142",
        "name": "Кофейный бар в гостинице \"Космос\"",
        "url": "2013-10-01"
    },
    "119": {
        "map": "Гостиница «Swissôtel Красные Холмы»",
        "lat": "37.644846",
        "lon": "55.733272",
        "name": "Двойной бар в «Swissôtel Красные Холмы»",
        "url": "2013-10-03"
    },
    "120": {
        "map": "Клуб «Space Moscow»",
        "lat": "37.526733",
        "lon": "55.742027",
        "name": "BAR-STREET на \"Event Revolution 2013\"",
        "url": "2013-09-24"
    },
    "121": {
        "map": "Московский театр «Et Cetera»",
        "lat": "37.635672",
        "lon": "55.765047",
        "name": "Мастер-класс \"Торседор и Cомелье\"",
        "url": "2013-10-09"
    },
    "122": {
        "map": "Ресторан «The Apartment»",
        "lat": "37.609393",
        "lon": "55.740638",
        "name": "Коктейль-шоу \"Поезд любви\" Ресторан «The Apar",
        "url": "2013-10-10"
    },
    "123": {
        "map": "Бизнес-центр «Central City Tower»",
        "lat": "37.634881",
        "lon": "55.744145",
        "name": "Мастер-класс по чаям компания \"Атон\"",
        "url": "2013-10-17"
    },
    "124": {
        "map": "Гостиница «Метрополь»",
        "lat": "37.621638",
        "lon": "55.758379",
        "name": "Мастер-класс \"Торседор и Фумелье\" компания \"И",
        "url": "2013-10-24"
    },
    "125": {
        "map": "Офис компании «METRO Cash&Carry»",
        "lat": "37.447366",
        "lon": "55.875822",
        "name": "Мастер-класс Metro Cash & Carry",
        "url": "2013-10-26"
    },
    "126": {
        "map": "Выставочный центр «Крокус Экспо»",
        "lat": "37.388374",
        "lon": "55.824714",
        "name": "Выставка ПИР стенд МЕТРО СС",
        "url": "2013-09-30"
    },
    "127": {
        "map": "Автосалон «МБ-Измайлово»",
        "lat": "37.869819",
        "lon": "55.784594",
        "name": "День Рождения МБ-Измайлово",
        "url": "2013-11-15"
    },
    "128": {
        "map": "Офис компании «НЭО Центр»",
        "lat": "37.596920",
        "lon": "55.783349",
        "name": "Кофе-брейк для компании \"НЭО Центр\"",
        "url": "2013-11-25"
    },
    "129": {
        "map": "Ресторан «Нескучный сад»",
        "lat": "37.591908",
        "lon": "55.729260",
        "name": "Bar-street на ежегодной церемонии \"Glent in M",
        "url": "2013-11-26"
    },
    "130": {
        "map": "Гостиница «Ренессанс Москва Олимпик»",
        "lat": "37.624110",
        "lon": "55.785181",
        "name": "Молекулярный бар отель \"Ренессанс Олимпик\"",
        "url": "2013-11-28"
    },
    "131": {
        "map": "Бизнес-центр «Лотте Плаза»",
        "lat": "37.584025",
        "lon": "55.751287",
        "name": "Карнавальный бар в \"Лотте Плаза\"",
        "url": "2013-11-29"
    },
    "132": {
        "map": "Банкетный зал «Форум Холл»",
        "lat": "37.644891",
        "lon": "55.725646",
        "name": "Мебель с подсветкой \"Форум холл\"",
        "url": "2013-12-07"
    },
    "133": {
        "map": "Сад «Эрмитаж»",
        "lat": "37.609308",
        "lon": "55.770719",
        "name": "Bar-street на ежегодной теннисной премии \"Зол",
        "url": "2013-12-08"
    },
    "134": {
        "map": "Танцевальный клуб «Мегаполис»",
        "lat": "37.582760",
        "lon": "55.773475",
        "name": "Ледяной бар для \"ФПБ Банк\"",
        "url": "2013-12-13"
    },
    "135": {
        "map": "Культурно-развлекательный центр «Арбат»",
        "lat": "37.585063",
        "lon": "55.751938",
        "name": "Бар на новогоднем корпоративе в стиле кинофил",
        "url": "2013-12-12"
    },
    "136": {
        "map": "Фитнес клуб «Мультиспорт»",
        "lat": "37.549398",
        "lon": "55.721548",
        "name": "Выездной бар в клубе \"Multisport\"",
        "url": "2013-12-17"
    },
    "137": {
        "map": "Концертный зал «Королевский»",
        "lat": "37.614938",
        "lon": "55.818545",
        "name": "Чайный бар \"ВДНХ\"",
        "url": "2013-12-18"
    },
    "138": {
        "map": "Бизнес-центр «Башня 2000»",
        "lat": "37.544573",
        "lon": "55.746013",
        "name": "Новогодний корпоратив \"Бизнес-центр Башня 200",
        "url": "2013-12-24"
    },
    "139": {
        "map": "Дизайнерское кафе «Follow Me Cafe»",
        "lat": "37.639098",
        "lon": "55.758454",
        "name": "Корпоратив компании \"Билайн\"",
        "url": "2013-12-25"
    },
    "140": {
        "map": "Офис компании «ООО ЦНИИ»",
        "lat": "37.609241",
        "lon": "55.804272",
        "name": "Корпоратив в офисе компании \"ЦНИИ\"",
        "url": "2013-12-26"
    },
    "141": {
        "map": "Ресторан «Лапландия»",
        "lat": "30.375777",
        "lon": "59.932551",
        "name": "Русский бар \"Санкт-Петербург\"",
        "url": "2013-11-24"
    },
    "142": {
        "map": "Развлекательный центр «Golden Palace»",
        "lat": "37.579122",
        "lon": "55.782605",
        "name": "Lady Bar на корпоративном мероприятии",
        "url": "2014-01-16"
    },
    "143": {
        "map": "Отель «Korston»",
        "lat": "37.564170",
        "lon": "55.705657",
        "name": "Корпоратив компании \"1С\"",
        "url": "2014-01-17"
    },
    "144": {
        "map": "Банкетный комплекс «Суриковъ Холл»",
        "lat": "37.581475",
        "lon": "55.800446",
        "name": "Корпоратив компании \"Мегафон\"",
        "url": "2014-01-29"
    },
    "145": {
        "map": "Бар-ресторан «Пумба»",
        "lat": "36.974195",
        "lon": "55.711108",
        "name": "Частный День Рождения бар \"Пумба\"",
        "url": "2014-01-24"
    },
    "146": {
        "map": "Академия красоты «Loreal»",
        "lat": "37.610259",
        "lon": "55.734027",
        "name": "Десерт бар Академия красоты L'Oreal Professio",
        "url": "2014-01-30"
    },
    "147": {
        "map": "Клуб «Arena Moscow»",
        "lat": "37.561234",
        "lon": "55.785727",
        "name": "Молекулярный бар клуб \"Arena Moscow\"",
        "url": "2014-01-31"
    },
    "148": {
        "map": "Бизнес Центр «RigaLand»",
        "lat": "37.241605",
        "lon": "55.784494",
        "name": "Фреш бар компания \"Danone\"",
        "url": "2014-02-02"
    },
    "149": {
        "map": "Отель «Холидей Инн Москва Сокольники»",
        "lat": "37.680697",
        "lon": "55.787931",
        "name": "Кофейный бар гостиница \"Холидей Инн Сокольник",
        "url": "2014-02-06"
    },
    "150": {
        "map": "Автосалон «БМВ независимость Белая дача»",
        "lat": "37.835562",
        "lon": "55.649565",
        "name": "Кислородный бар в автосалоне \"BMW\"",
        "url": "2014-02-14"
    },
    "151": {
        "map": "«Центр международной торговли»",
        "lat": "37.554730",
        "lon": "55.755620",
        "name": "Пивной бар к празднику 23 февраля",
        "url": "2014-02-21"
    },
    "152": {
        "map": "Бизнес-центр «Северное сияние»",
        "lat": "37.584618",
        "lon": "55.790356",
        "name": "Тропический бар",
        "url": "2014-02-22"
    },
    "153": {
        "map": "Офис компании «SOLLERS»",
        "lat": "37.532619",
        "lon": "55.752028",
        "name": "Смузи бар в преддверии праздника 8 марта",
        "url": "2014-03-06"
    },
    "154": {
        "map": "Парк культуры и отдыха им.М.Горького",
        "lat": "37.601291",
        "lon": "55.728362",
        "name": "Red Bull Crashed Ice 2014",
        "url": "2014-03-07"
    },
    "155": {
        "map": "Офис компании «Jumpica»",
        "lat": "37.649268",
        "lon": "55.743569",
        "name": "Молочный бар в преддверии праздника 8 марта",
        "url": "2014-03-05"
    },
    "156": {
        "map": "Усадьба «Салтыковых-Чертковых»",
        "lat": "37.631145",
        "lon": "55.760475",
        "name": "Смузи бар для Grand Gusto Group ",
        "url": "2014-03-26"
    },
    "157": {
        "map": "Бизнес-центр «Digital October»",
        "lat": "37.609086",
        "lon": "55.740389",
        "name": "Фреш бар компания \"Megogo\"",
        "url": "2014-03-27"
    },
    "158": {
        "map": "Фитнес клуб «Мультиспорт»",
        "lat": "37.549398",
        "lon": "55.721548",
        "name": "Фитнес-бар клуб \"Мультиспорт\"",
        "url": "2014-04-06"
    },
    "159": {
        "map": "Ресторан «Чайка»",
        "lat": "37.557037",
        "lon": "55.755133",
        "name": "Бар на детский День Рождения",
        "url": "2014-04-11"
    },
    "160": {
        "map": "Бизнес-центр «Павелецкая плаза»",
        "lat": "37.634814",
        "lon": "55.730423",
        "name": "Желе-бар",
        "url": "2014-04-21"
    },
    "161": {
        "map": "Автосалон «Ауди Центр Юго-Запад»",
        "lat": "37.571911",
        "lon": "55.700706",
        "name": "Космический бар",
        "url": "2014-04-18"
    },
    "162": {
        "map": "Автосалон «Ауди центр Москва»",
        "lat": "37.545088",
        "lon": "55.732579",
        "name": "Мобильный бар в автосалоне AUDI",
        "url": "2014-04-23"
    },
    "163": {
        "map": "Выставочный центр «Крокус Экспо»",
        "lat": "37.388374",
        "lon": "55.824714",
        "name": "Кислородный бар на выставке, компания \"STS Lo",
        "url": "2014-04-22"
    },
    "164": {
        "map": "Гостиница «Swissôtel Красные Холмы»",
        "lat": "37.644846",
        "lon": "55.733272",
        "name": "Коктейль бар на гала-ужине",
        "url": "2014-05-26"
    },
    "165": {
        "map": "Автосалон «Ауди центр Москва»",
        "lat": "37.545088",
        "lon": "55.732579",
        "name": "День открытых дверей Ауди Центр Москва",
        "url": "2014-06-12"
    },
    "166": {
        "map": "Салон красоты «Рив Гош»",
        "lat": "37.620716",
        "lon": "55.771194",
        "name": "Выездной бар для компании \"Рив Гош\"",
        "url": "2014-06-18"
    },
    "167": {
        "map": "Бизнес Центр «Олимпик Холл»",
        "lat": "37.626140",
        "lon": "55.782628",
        "name": "Коктейльный бар для компании \"Young & Rubicam",
        "url": "2014-06-30"
    },
    "168": {
        "map": "Салон сотовой связи «Связной»",
        "lat": "37.606530",
        "lon": "55.763560",
        "name": "Молекулярный бар на презентации смартфона LG ",
        "url": "2014-07-03"
    },
    "169": {
        "map": "Выставочный центр «Крокус Экспо»",
        "lat": "37.388374",
        "lon": "55.824714",
        "name": "Бармен-шоу на стенде \"Haima\" ММАС 2014",
        "url": "2014-08-28"
    },
    "170": {
        "map": "Выставочный центр «Крокус Экспо»",
        "lat": "37.388374",
        "lon": "55.824714",
        "name": "Чайная церемония \"Московский международный ав",
        "url": "2014-08-29"
    },
    "171": {
        "map": "Выставочный центр «Крокус Экспо»",
        "lat": "37.388374",
        "lon": "55.824714",
        "name": "Кислородный бар на стенде \"Skoda\" ММАС 2014",
        "url": "2014-08-27"
    },
    "172": {
        "map": "Бизнес-центр «BOSCH»",
        "lat": "37.413425",
        "lon": "55.921301",
        "name": "Два пивных бара на корпоративном мероприятии ",
        "url": "2014-09-03"
    },
    "173": {
        "map": "Отель «Шератон Москва Шереметьево»",
        "lat": "37.416523",
        "lon": "55.948946",
        "name": "Выездной бар для компании \"Finish\"",
        "url": "2014-09-04"
    },
    "174": {
        "map": "Гостиница «Ренессанс Москва Монарх»",
        "lat": "37.559974",
        "lon": "55.783908",
        "name": "Выездной пивной бар в \"Ренессанс Монарх\"",
        "url": "2014-09-10"
    },
    "175": {
        "map": "Конгресс-парк гостиницы «Украина»",
        "lat": "37.565700",
        "lon": "55.751741",
        "name": "Выездной бар на \"IBM Fast Data Forum 2014\"",
        "url": "2014-09-17"
    },
    "176": {
        "map": "Бизнес-центр «Silver City»",
        "lat": "37.654122",
        "lon": "55.750517",
        "name": "Коктейль бар \"Бизнес-центр Silver City\"",
        "url": "2014-09-18"
    },
    "177": {
        "map": "Ресторан «City Club»",
        "lat": "37.546050",
        "lon": "55.746677",
        "name": "Мастер-класс по приготовлению коктейлей в рес",
        "url": "2014-09-24"
    },
    "178": {
        "map": "Отель «Courtyard Moscow City Center»",
        "lat": "37.604040",
        "lon": "55.757999",
        "name": "Молекулярный коктейль бар",
        "url": "2014-09-26"
    },
    "179": {
        "map": "Бизнес-центр «Новоспасский двор»",
        "lat": "37.650941",
        "lon": "55.723437",
        "name": "Бар на корпоративе \"БЦ Новоспасский двор\"",
        "url": "2014-10-16"
    },
    "180": {
        "map": "Фитнес клуб «Мультиспорт»",
        "lat": "37.549398",
        "lon": "55.721548",
        "name": "Выездной бар на дне открытых дверей \"Фитнес к",
        "url": "2014-10-10"
    },
    "181": {
        "map": "Автосалон «Авилон Jaguar Land Rover»",
        "lat": "37.714346",
        "lon": "55.715744",
        "name": "Выездной бар в автосалоне \"Ягуар Ленд Ровер\"",
        "url": "2014-10-17"
    },
    "182": {
        "map": "Отель «Marriott Grand»",
        "lat": "37.599562",
        "lon": "55.768603",
        "name": "Бар в стиле Джеймса Бонда компания \"Continent",
        "url": "2014-10-20"
    },
    "183": {
        "map": "Автосалон «Лексус-Ясенево»",
        "lat": "37.505734",
        "lon": "55.597250",
        "name": "Выездной бар \"Лексус-Ясенево\"",
        "url": "2014-10-02"
    },
    "184": {
        "map": "Автосалон «Мерседес-Бенц Беляево»",
        "lat": "37.516141",
        "lon": "55.653457",
        "name": "День открытых дверей «Мерседес-Бенц Беляево» ",
        "url": "2014-10-24"
    },
    "185": {
        "map": "Клуб «Lookin Rooms»",
        "lat": "37.604283",
        "lon": "55.766267",
        "name": "Выездной бар в «Lookin Rooms»",
        "url": "2014-11-18"
    },
    "186": {
        "map": "Бизнес-центр «GreenWood»",
        "lat": "37.402813",
        "lon": "55.868134",
        "name": "Китайская чайная церемония бизнес-центр Green",
        "url": "2014-11-19"
    },
    "187": {
        "map": "Ресторан «City Club»",
        "lat": "37.546050",
        "lon": "55.746677",
        "name": "Молекулярный бар \"City Club\" ",
        "url": "2014-11-24"
    },
    "188": {
        "map": "Клуб «Jagger»",
        "lat": "37.561516",
        "lon": "55.756218",
        "name": "Коктейль-шоу \"поезд любви\" Клуб «Jagger»",
        "url": "2014-11-26"
    },
    "189": {
        "map": "Лофт «Коперник»",
        "lat": "37.618629",
        "lon": "55.717658",
        "name": "Выездной бар на Дне Рождения в лофте «Коперни",
        "url": "2014-11-28"
    },
    "190": {
        "map": "Гостиница «Ренессанс Москва Монарх»",
        "lat": "37.559974",
        "lon": "55.783908",
        "name": "Пивной бар для \"Infor-media Russia\"",
        "url": "2014-12-03"
    },
    "191": {
        "map": "Ресторан «Экспедиция»",
        "lat": "37.641506",
        "lon": "55.751677",
        "name": "Русский бар для компании Citymetria ресторан ",
        "url": "2014-12-04"
    },
    "192": {
        "map": "Банкетный комплекс «Ш.Ё.Л.К»",
        "lat": "37.561182",
        "lon": "55.731881",
        "name": "Ежегодная теннисная премия  \"Золотая ракетка ",
        "url": "2014-12-08"
    },
    "193": {
        "map": "Клуб «Lookin Rooms»",
        "lat": "37.604283",
        "lon": "55.766267",
        "name": "Новогодний выездной бар",
        "url": "2014-12-11"
    },
    "194": {
        "map": "Московский керлинг-клуб",
        "lat": "37.582896",
        "lon": "55.786776",
        "name": "Выездной бар на корпоративе агентства «Brookl",
        "url": "2014-12-12"
    },
    "195": {
        "map": "Ресторан «Гороховое поле»",
        "lat": "37.661001",
        "lon": "55.762761",
        "name": "Новогодний выездной бар в «Гороховое Поле»",
        "url": "2014-12-16"
    },
    "196": {
        "map": "Банкетный зал «EVENT-ХОЛЛ ИнфоПространст",
        "lat": "37.604221",
        "lon": "55.739903",
        "name": "Пивной бар на Новогоднем корпоративе",
        "url": "2014-12-19"
    },
    "197": {
        "map": "Ресторан «Чайка»",
        "lat": "37.557037",
        "lon": "55.755133",
        "name": "Детский бар ресторан \"Чайка\"",
        "url": "2015-01-23"
    },
    "198": {
        "map": "Ресторан «Shakti Terrace»",
        "lat": "37.611105",
        "lon": "55.740647",
        "name": "Молекулярный бар «Shakti Terrace»",
        "url": "2015-02-18"
    },
    "199": {
        "map": "Офис компании \"МТТ\"",
        "lat": "37.660672",
        "lon": "55.737924",
        "name": "Выездной бар к 8 марта компания «МТТ»",
        "url": "2015-03-05"
    },
    "200": {
        "map": "ЦВК «Экспоцентр»",
        "lat": "37.545071",
        "lon": "55.751948",
        "name": "Выездной бар на стенде «VitrA»",
        "url": "2015-03-30"
    },
    "201": {
        "map": "Торговый Центр «Гагаринский»",
        "lat": "37.592106",
        "lon": "55.706829",
        "name": "Мастер-класс по приготовлению коктейлей тц «Г",
        "url": "2015-04-05"
    },
    "202": {
        "map": "Банкетный зал «Форум Холл»",
        "lat": "37.644891",
        "lon": "55.725646",
        "name": "Выездной бар для «Colliers International»",
        "url": "2015-04-22"
    },
    "203": {
        "map": "«Покровский берег»",
        "lat": "37.467697",
        "lon": "55.819104",
        "name": "Выездной бар на свадьбе в «Покровский берег»",
        "url": "2015-06-04"
    },
    "204": {
        "map": "Фитнес клуб «Мультиспорт»",
        "lat": "37.549398",
        "lon": "55.721548",
        "name": "Выездной бар для компании «Тур Теннис»",
        "url": "2015-06-19"
    },
    "205": {
        "map": "Всероссийский выставочный центр «ВВЦ»",
        "lat": "37.633699",
        "lon": "55.828721",
        "name": "Выездной бар на бизнес-завтраке для наших кли",
        "url": "2015-07-13"
    },
    "206": {
        "map": "Автосалон «Jaguar»",
        "lat": "37.505701",
        "lon": "55.597242",
        "name": "Безалкогольный бар в автосалоне «Jaguar»",
        "url": "2015-07-03"
    },
    "207": {
        "map": "Пансионат  «Петрово-Дальнее»",
        "lat": "37.147085",
        "lon": "55.746256",
        "name": "Пивной бар на корпоративной спартакиаде",
        "url": "2015-07-16"
    },
    "208": {
        "map": "Пляжный клуб «Royal Bar»",
        "lat": "37.479459",
        "lon": "55.836691",
        "name": "Выездной бар на Дне Рождения в «Royal Bar»",
        "url": "2015-07-24"
    },
    "209": {
        "map": "«Гребной канал»",
        "lat": "37.436126",
        "lon": "55.752770",
        "name": "Выездной бар на Red Bull Flugtag 2015",
        "url": "2015-07-25"
    },
    "210": {
        "map": "Гольф-клуб «Сколково»",
        "lat": "37.368699",
        "lon": "55.687905",
        "name": "Crio бар для гольф-клуба «Сколково»",
        "url": "2015-08-06"
    },
    "211": {
        "map": "Автосалон «Мерседес-Бенц Беляево»",
        "lat": "37.516141",
        "lon": "55.653457",
        "name": "Тропический бар «Мерседес-Бенц Беляево» ",
        "url": "2015-08-22"
    },
    "212": {
        "map": "Ресторан «Чайка»",
        "lat": "37.557037",
        "lon": "55.755133",
        "name": "Выездной бар на свадьбе в ресторане «Чайка» ",
        "url": "2015-09-10"
    },
    "213": {
        "map": "Фитнес клуб «Мультиспорт»",
        "lat": "37.549398",
        "lon": "55.721548",
        "name": "Бар на турнире по теннису Южного региональног",
        "url": "2015-09-11"
    },
    "214": {
        "map": "Выставочный центр «Крокус Экспо»",
        "lat": "37.388374",
        "lon": "55.824714",
        "name": "Выездной бар для компании «Люди Проекты»",
        "url": "2015-09-08"
    },
    "215": {
        "map": "Всероссийский выставочный центр «ВВЦ»",
        "lat": "37.633699",
        "lon": "55.828721",
        "name": "Выездной бар для компании «Бронницкий Ювелир»",
        "url": "2015-10-01"
    },
    "216": {
        "map": "Автосалон «Шкода»",
        "lat": "37.739195",
        "lon": "55.756377",
        "name": "Молекулярный бар на презентации Skoda Superb",
        "url": "2015-10-07"
    },
    "217": {
        "map": "Автосалон «Автодом»",
        "lat": "37.413363",
        "lon": "55.688502",
        "name": "Выездной бар на презентации BMW X1 ",
        "url": "2015-10-06"
    },
    "218": {
        "map": "Ресторан «Гусятникоff»",
        "lat": "37.656599",
        "lon": "55.742000",
        "name": "Жженка и настойки для компании «Naumen»",
        "url": "2015-10-14"
    },
    "219": {
        "map": "Автосалон «Лексус-Ясенево»",
        "lat": "37.505734",
        "lon": "55.597250",
        "name": "Молекулярный бар в автосалоне «Lexus»",
        "url": "2015-11-20"
    },
    "220": {
        "map": "Отель «Планерное»",
        "lat": "37.359003",
        "lon": "55.913826",
        "name": "Коктейль бар на корпоративе компании «Мерседе",
        "url": "2015-11-19"
    },
    "221": {
        "map": "Банкетный комплекс «Ш.Ё.Л.К»",
        "lat": "37.561182",
        "lon": "55.731881",
        "name": "Ежегодная теннисная премия «Золотая ракетка 2",
        "url": "2015-12-06"
    },
    "222": {
        "map": "Флагманский шоурум «Nolte Moscow»",
        "lat": "37.559457",
        "lon": "55.746755",
        "name": "Мастер-класс по приготовлению пуншей и жженки",
        "url": "2015-10-21"
    },
    "223": {
        "map": "ЦВК «Экспоцентр»",
        "lat": "37.545071",
        "lon": "55.751948",
        "name": "Выездной бар на выставке, компания «Сибур»",
        "url": "2016-01-25"
    },
    "224": {
        "map": "Московский городской Гольф Клуб",
        "lat": "37.520477",
        "lon": "55.723573",
        "name": "Новогодний бар в гольф клубе",
        "url": "2016-01-10"
    },
    "225": {
        "map": "ТЦ «АВИАПАРК»",
        "lat": "37.534133",
        "lon": "55.786661",
        "name": "Молекулярный бар для компании «Kidzania»",
        "url": "2016-02-14"
    },
    "226": {
        "map": "Бизнес-центр «Лотте Плаза»",
        "lat": "37.584025",
        "lon": "55.751287",
        "name": "5 коктейль баров для компании «Синергия»",
        "url": "2016-02-19"
    },
    "227": {
        "map": "Автосалон «Рольф JEEP»",
        "lat": "37.580079",
        "lon": "55.861474",
        "name": "Выездные бары в автосалонах «Jeep и Mitsubish",
        "url": "2016-03-04"
    },
    "228": {
        "map": "Клуб «Soho Rooms»",
        "lat": "37.562130",
        "lon": "55.732900",
        "name": "Пунш бар в клубе Soho Rooms",
        "url": "2016-04-05"
    },
    "229": {
        "map": "«TESLA4000»",
        "lat": "37.696412",
        "lon": "55.749670",
        "name": "Выездной бар на премии «CRE Moscow Awards 201",
        "url": "2016-04-20"
    },
    "230": {
        "map": "«MOD EVENT HALL»",
        "lat": "37.580133",
        "lon": "55.758381",
        "name": "Эко бар на конференции «НАОМ ExCHANGE»",
        "url": "2016-05-18"
    },
    "231": {
        "map": "Сад «Эрмитаж»",
        "lat": "37.609308",
        "lon": "55.770719",
        "name": "Crio бар для «UTS Group»",
        "url": "2016-05-20"
    },
    "232": {
        "map": "Коворкинг центр «Нагатино 2.0»",
        "lat": "37.617936",
        "lon": "55.682668",
        "name": "Выездной бар на презентации компании «Бизнес ",
        "url": "2016-05-25"
    },
    "233": {
        "map": "«Грильная Lounge»",
        "lat": "37.558479",
        "lon": "55.714722",
        "name": "Летний эко бар на корпоративе",
        "url": "2016-06-28"
    },
    "234": {
        "map": "«Меркурий Сити Тауэр»",
        "lat": "37.541742",
        "lon": "55.752847",
        "name": "Тропические бары на «Top Summer Party»",
        "url": "2016-06-29"
    },
    "235": {
        "map": "Пляжный клуб «Royal Bar»",
        "lat": "37.479459",
        "lon": "55.836691",
        "name": "Выездной бар на свадьбе в «Royal Bar»",
        "url": "2016-07-08"
    },
    "236": {
        "map": "Дизайн-завод «Флакон»",
        "lat": "37.585301",
        "lon": "55.804904",
        "name": "Выездной бар на презентации Smart forfour",
        "url": "2016-07-15"
    },
    "237": {
        "map": "«ПОРТ» на ВДНХ",
        "lat": "37.617916",
        "lon": "55.829676",
        "name": "Выездной бар на массовом забеге компании «Mai",
        "url": "2016-07-28"
    },
    "238": {
        "map": "Инновационный центр «Сколково»",
        "lat": "37.340847",
        "lon": "55.684504",
        "name": "Выездной бар для «Diamond catering»",
        "url": "2016-08-10"
    },
    "239": {
        "map": "Офис компании «Ernst & Young»",
        "lat": "37.641483",
        "lon": "55.735485",
        "name": "Выездной бар для компании «Ernst & Young»",
        "url": "2016-08-16"
    },
    "240": {
        "map": "Парк «Сокольники»",
        "lat": "37.676523",
        "lon": "55.794776",
        "name": "Тропический бар для «Goldberg Budinstein Cons",
        "url": "2016-08-21"
    },
    "241": {
        "map": "Центральный офис «Р-Фарм»",
        "lat": "37.509228",
        "lon": "55.661734",
        "name": "Двойной кофейный мастер-класс компания «Р-Фар",
        "url": "2016-08-22"
    },
    "242": {
        "map": "Автосалон «Rolls-Royce»",
        "lat": "37.564088",
        "lon": "55.751575",
        "name": "Выездной бар в автосалоне «Rolls-Royce»",
        "url": "2015-07-08"
    },
    "243": {
        "map": "Гостиница «Swissôtel Красные Холмы»",
        "lat": "37.644846",
        "lon": "55.733272",
        "name": "3 эко бара для «Territory Travel & Business S",
        "url": "2016-08-24"
    },
    "244": {
        "map": "Офис компании «Mail.ru»",
        "lat": "37.537764",
        "lon": "55.797212",
        "name": "Организовали молочный бар для «Mail.ru»",
        "url": "2016-09-15"
    },
    "245": {
        "map": "Офис компании «PepsiCo»",
        "lat": "37.519560",
        "lon": "55.805302",
        "name": "Выездной бар для компании «PepsiCo»",
        "url": "2016-09-21"
    },
    "246": {
        "map": "Фотостудия «Sunlightstudio»",
        "lat": "37.703274",
        "lon": "55.786207",
        "name": "Молекулярный бар для компании «Демлинк»",
        "url": "2016-09-22"
    },
    "247": {
        "map": "«Центральный Дом Художника»",
        "lat": "37.604373",
        "lon": "55.734585",
        "name": "Выездной фреш бар на стенде «Донстрой» и «ВТБ",
        "url": "2016-09-26"
    },
    "248": {
        "map": "Всероссийский выставочный центр «ВВЦ»",
        "lat": "37.633699",
        "lon": "55.828721",
        "name": "Чайный и кофейный бар для компании «Бронницки",
        "url": "2016-09-28"
    },
    "249": {
        "map": "Novotel «Москва Сити»",
        "lat": "37.537292",
        "lon": "55.748343",
        "name": "Коктейльный бар для контент-провайдера «М.И.Р",
        "url": "2016-10-06"
    },
    "250": {
        "map": "Автосалон «BMW Адванс-Авто»",
        "lat": "37.393962",
        "lon": "55.618638",
        "name": "Welcome bar на встрече гостей автосалона «BMW",
        "url": "2016-10-18"
    },
    "251": {
        "map": "Фитнес клуб «Мультиспорт»",
        "lat": "37.549398",
        "lon": "55.721548",
        "name": "Организовали выездной фреш бар для компании «",
        "url": "2016-10-20"
    },
    "252": {
        "map": "Автосалон «Audi Центр Север»",
        "lat": "37.463741",
        "lon": "55.863638",
        "name": "Хэллоуин в автосалоне Audi Центр Север",
        "url": "2016-10-26"
    },
    "253": {
        "map": "Бизнес-центр «Школа журналистов»",
        "lat": "37.605087",
        "lon": "55.771748",
        "name": "Halloween бар для компании Tabakoff",
        "url": "2016-10-27"
    },
    "254": {
        "map": "«Центр международной торговли»",
        "lat": "37.554730",
        "lon": "55.755620",
        "name": "Выездной детокс бар для компании Askona",
        "url": "2016-11-17"
    },
    "255": {
        "map": "«Порше Центр Москва»",
        "lat": "37.450968",
        "lon": "55.874199",
        "name": "Кофейный бар в автосалоне Porsche",
        "url": "2016-11-18"
    },
    "256": {
        "map": "Автосалон «Порше Центр Ясенево»",
        "lat": "37.503968",
        "lon": "55.597712",
        "name": "Молекулярный бар на презентации Porsche Panam",
        "url": "2016-12-02"
    },
    "257": {
        "map": "Банкетный комплекс «Ш.Ё.Л.К»",
        "lat": "37.561182",
        "lon": "55.731881",
        "name": "Ежегодная теннисная премия «Золотая ракетка 2",
        "url": "2016-12-04"
    },
    "258": {
        "map": "Ресторан G.GRAF",
        "lat": "37.616938",
        "lon": "55.727536",
        "name": "Молекулярный бар для компании Summitman",
        "url": "2016-12-14"
    },
    "259": {
        "map": "Отель «Radisson Hotels & Resorts»",
        "lat": "37.566386",
        "lon": "55.752816",
        "name": "Выездные бары на корпоративном мероприятии Ha",
        "url": "2016-12-15"
    },
    "260": {
        "map": "Отель «Азимут Олимпик»",
        "lat": "37.623685",
        "lon": "55.784750",
        "name": "Выездной бар на корпоративе в стиле «Алиса в ",
        "url": "2017-01-19"
    },
    "261": {
        "map": "«Центр документального кино»",
        "lat": "37.593095",
        "lon": "55.736427",
        "name": "Ледяной бар на презентации телесериала ТНТ «А",
        "url": "2017-01-25"
    },
    "262": {
        "map": "Клуб «Yotaspace»",
        "lat": "37.594711",
        "lon": "55.709604",
        "name": "Эко бар на корпоративном мероприятии HeadHunt",
        "url": "2017-01-26"
    },
    "263": {
        "map": "Всероссийский выставочный центр «ВВЦ»",
        "lat": "37.633699",
        "lon": "55.828721",
        "name": "Молекулярный бар на выставке для компании Nes",
        "url": "2017-01-31"
    },
    "264": {
        "map": "Гостиница «Интурист Коломенское»",
        "lat": "37.673653",
        "lon": "55.647174",
        "name": "Классический бар для компании Imperial Tobacc",
        "url": "2017-03-22"
    },
    "265": {
        "map": "ЦВК «Экспоцентр»",
        "lat": "37.545071",
        "lon": "55.751948",
        "name": "Выездной бар на стенде компании VitrA",
        "url": "2017-04-05"
    },
    "266": {
        "map": "Ресторан Dorchester",
        "lat": "37.555014",
        "lon": "55.755840",
        "name": "Выездной бар на юбилее компании World Trade C",
        "url": "2017-04-04"
    },
    "267": {
        "map": "Автосалон «Мерседес-Бенц Каширка»",
        "lat": "37.733322",
        "lon": "55.591780",
        "name": "Выездной бар в автосалоне «Мерседес-Бенц»",
        "url": "2017-04-17"
    },
    "268": {
        "map": "Автосалон «Audi Центр Север»",
        "lat": "37.463741",
        "lon": "55.863638",
        "name": "Выездной нео-бар в автосалоне Audi",
        "url": "2017-04-19"
    },
    "269": {
        "map": "Фитнес клуб «Мультиспорт»",
        "lat": "37.549398",
        "lon": "55.721548",
        "name": "Выездной бар для компании «Тур Теннис» на «La",
        "url": "2017-05-12"
    },
    "270": {
        "map": "SpeedRent",
        "lat": "37.617184",
        "lon": "55.761104",
        "name": "Выездной бар для компании Optic Dias",
        "url": "2017-05-16"
    },
    "271": {
        "map": "«Московский Планетарий»",
        "lat": "37.583508",
        "lon": "55.761225",
        "name": "Выездной crio бар на встрече гостей «Московск",
        "url": "2017-05-17"
    },
    "272": {
        "map": "Башня Око «Москва Сити»",
        "lat": "37.533986",
        "lon": "55.749441",
        "name": "Молекулярный бар на корпоративном мероприятии",
        "url": "2017-05-29"
    },
    "273": {
        "map": "Фитнес клуб «Мультиспорт»",
        "lat": "37.549398",
        "lon": "55.721548",
        "name": "Выездной бар для компании «Бинбанк»",
        "url": "2017-06-09"
    },
    "274": {
        "map": "Яхт-клуб «Адмирал»",
        "lat": "37.538049",
        "lon": "55.971054",
        "name": "Выездной эко бар для компании Everad",
        "url": "2017-06-21"
    },
    "275": {
        "map": "Фитнес клуб «Мультиспорт»",
        "lat": "37.549398",
        "lon": "55.721548",
        "name": "Выездной бар для компании «Абсолют»",
        "url": "2017-07-07"
    },
    "276": {
        "map": "Площадка «Яблоневый сад»",
        "lat": "37.396935",
        "lon": "55.771331",
        "name": "Выездной бар на корпоративном мероприятии ком",
        "url": "2017-07-21"
    },
    "277": {
        "map": "Бизнес-центр «Новоспасский двор»",
        "lat": "37.650941",
        "lon": "55.723437",
        "name": "Выездной bubble tea бар для компании Upeco ",
        "url": "2017-07-26"
    },
    "278": {
        "map": "БЕРЕZЫ ПАРК",
        "lat": "37.438982",
        "lon": "55.804050",
        "name": "Выездной эко бар для компании «Арт-Формула»",
        "url": "2017-08-03"
    },
    "279": {
        "map": "Парк «Сокольники»",
        "lat": "37.676523",
        "lon": "55.794776",
        "name": "Выездной бар на обувной выставке компания Tam",
        "url": "2017-08-21"
    },
    "280": {
        "map": "Всероссийский выставочный центр «ВВЦ»",
        "lat": "37.633699",
        "lon": "55.828721",
        "name": "Чайный и кофейный бар для компании «Бронницки",
        "url": "2017-09-26"
    },
    "281": {
        "map": "Фотостудия Exposed",
        "lat": "37.610194",
        "lon": "55.720537",
        "name": "Молекулярный бар для компании Aviareps",
        "url": "2017-09-27"
    },
    "282": {
        "map": "ЦВК «Экспоцентр»",
        "lat": "55.751948",
        "lon": "55.751948",
        "name": "Молекулярный и крио бары для компании Invitro",
        "url": "2017-09-28"
    },
    "283": {
        "map": "Автосалон «Порше Центр Ясенево»",
        "lat": "37.503968",
        "lon": "55.597712",
        "name": "Чайный бар в автосалоне Porsche",
        "url": "2017-10-13"
    },
    "284": {
        "map": "Бизнес-центр «Новоспасский двор»",
        "lat": "37.650941",
        "lon": "55.723437",
        "name": "Нео бар для компании BBDO Group",
        "url": "2017-10-12"
    },
    "285": {
        "map": "Офис компании Optimum Media",
        "lat": "37.623334",
        "lon": "55.764809",
        "name": "Halloween бар для компании MB-Solutions",
        "url": "2017-10-25"
    },
    "286": {
        "map": "Офис компании Rock Flow Dynamics",
        "lat": "37.560577",
        "lon": "55.674160",
        "name": "Halloween бар для компании Rock Flow Dynamics",
        "url": "2017-10-26"
    },
    "287": {
        "map": "ТРЦ «Метрополис»",
        "lat": "37.497669",
        "lon": "55.823159",
        "name": "Смузи бар на спортивном мероприятии Under Arm",
        "url": "2017-10-27"
    },
    "288": {
        "map": "Офис компании British American Tobacco",
        "lat": "37.415312",
        "lon": "55.752210",
        "name": "Классический бар для British American Tobacco",
        "url": "2017-10-28"
    },
    "289": {
        "map": "Гостиница «Метрополь»",
        "lat": "37.621638",
        "lon": "55.758379",
        "name": "Молекулярный бар в гостинице Метрополь",
        "url": "2017-11-08"
    },
    "290": {
        "map": "Банкетный комплекс «Ш.Ё.Л.К»",
        "lat": "37.561182",
        "lon": "55.731881",
        "name": "Welcome bar для компании ivi",
        "url": "2017-11-15"
    },
    "291": {
        "map": "Офис компании Manzana Group",
        "lat": "37.692739",
        "lon": "55.778619",
        "name": "Глинтвейн бар для компании Manzana Group",
        "url": "2017-11-16"
    },
    "292": {
        "map": "Банкетный комплекс «Ш.Ё.Л.К»",
        "lat": "37.561182",
        "lon": "55.731881",
        "name": "7 баров на ежегодной теннисной премии «Золота",
        "url": "2017-12-03"
    },
    "293": {
        "map": "Московский дворец молодежи",
        "lat": "37.579773",
        "lon": "55.726931",
        "name": "Выездные бары на корпоративном мероприятии ко",
        "url": "2017-12-15"
    },
    "294": {
        "map": "LOFT#1 The Event Hall",
        "lat": "37.555866",
        "lon": "55.762425",
        "name": "Выездной бар на новогоднем корпоративе Unite ",
        "url": "2017-12-25"
    },
    "295": {
        "map": "Офис компании Qiwi",
        "lat": "37.600074",
        "lon": "55.637616",
        "name": "Молекулярный бар для компании Qiwi",
        "url": "2018-01-11"
    },
    "296": {
        "map": "Конгресс-парк гостиницы «Рэдиссон Ройал»",
        "lat": "37.565600",
        "lon": "55.751434",
        "name": "Energy bar на медицинском форуме",
        "url": "2018-01-29"
    },
    "297": {
        "map": "Конгресс-Отель Ареал",
        "lat": "38.096284",
        "lon": "55.826790",
        "name": "Выездной бар на корпоративном мероприятии ком",
        "url": "2018-03-14"
    },
    "298": {
        "map": "Фитнес клуб «Мультиспорт»",
        "lat": "37.549398",
        "lon": "55.721548",
        "name": "Выездные бары на турнире по теннису VBP OPEN ",
        "url": "2018-03-24"
    },
    "299": {
        "map": "МЕГА белая дача",
        "lat": "37.844274",
        "lon": "55.654384",
        "name": "Выездной бар для ТЦ Мега",
        "url": "2018-04-20"
    },
    "300": {
        "map": "Центр дизайна ARTPLAY",
        "lat": "37.671221",
        "lon": "55.752365",
        "name": "Выездной бар для Moscow Advanced Communicatio",
        "url": "2018-04-16"
    },
    "301": {
        "map": "Банкетный зал МИР",
        "lat": "37.620402",
        "lon": "55.770146",
        "name": "Молекулярный бар для компании Testo Agency",
        "url": "2018-04-27"
    },
    "302": {
        "map": "оооо",
        "lat": "37.620402",
        "lon": "55.770146",
        "name": "Тест фото",
        "url": "2018-05-07"
    },
    "303": {
        "map": "Skolkovo Startup Village",
        "lat": "37.342489",
        "lon": "55.685644",
        "name": "Выездной бар для Tinkoff Startup Village",
        "url": "2018-05-30"
    },
    "304": {
        "map": "Выставочный центр «Крокус Экспо»",
        "lat": "37.388374",
        "lon": "55.824714",
        "name": "Выездной бар на стенде компании Ricoh",
        "url": "2018-06-25"
    },
    "305": {
        "map": "Банкетный комплекс «Ш.Ё.Л.К»",
        "lat": "37.561182",
        "lon": "55.731881",
        "name": "Выездной бар на корпоративном мероприятии lin",
        "url": "2018-07-19"
    },
    "306": {
        "map": "Автосалон «МБ-Беляево»",
        "lat": "37.515865",
        "lon": "55.653273",
        "name": "Выездной бар на презентации Mercedes-Benz A-C",
        "url": "2018-06-27"
    },
    "307": {
        "map": "Икша River Club",
        "lat": "37.541500",
        "lon": "56.131185",
        "name": "Выездной эко бар на закрытой вечеринке",
        "url": "2018-07-26"
    },
    "308": {
        "map": "Яхт-клуб «Адмирал»",
        "lat": "37.538049",
        "lon": "55.971054",
        "name": "Выездной бар на вечеринке в стиле IBIZA",
        "url": "2018-07-27"
    },
    "309": {
        "map": "Парк «Сокольники»",
        "lat": "37.676523",
        "lon": "55.794776",
        "name": "Выездной бар на стенде компании Tamaris",
        "url": "2018-08-26"
    },
    "310": {
        "map": "Фитнес клуб «Мультиспорт»",
        "lat": "37.549398",
        "lon": "55.721548",
        "name": "Выездной бар на турнире по теннису ЛАНИТOpen ",
        "url": "2018-08-31"
    },
    "311": {
        "map": "Loft Hall",
        "lat": "37.651115",
        "lon": "55.708629",
        "name": "Выездной бар для компании N-Joy",
        "url": "2018-09-19"
    },
    "312": {
        "map": "Oko tower",
        "lat": "37.535891",
        "lon": "55.750357",
        "name": "Кофейный бар для Netwell ",
        "url": "2018-09-18"
    },
    "313": {
        "map": "Всероссийский выставочный центр «ВВЦ»",
        "lat": "37.633699",
        "lon": "55.828721",
        "name": "Чайный и кофейный бар для компании «Бронницки",
        "url": "2018-09-24"
    }
}