<?xml version="1.0" encoding="utf-8"?>
<!-- Generator: Adobe Illustrator 19.0.0, SVG Export Plug-In . SVG Version: 6.00 Build 0)  -->
<svg version="1.1" id="Layer_1" xmlns="http://www.w3.org/2000/svg" xmlns:xlink="http://www.w3.org/1999/xlink" x="0px" y="0px"
	 viewBox="0 0 200 200" style="enable-background:new 0 0 200 200;" xml:space="preserve">
<style type="text/css">
	.st0{enable-background:new    ;}
</style>
<g class="st0">
	<path d="M45.8,142.5c-3.6-2.4-6.7-5.5-9.3-9.3c-2.6-3.8-4.7-8-6.2-12.7c-1.5-4.7-2.3-9.3-2.3-13.8c0-4.5,0.7-8.6,2.1-12.3
		s3.4-6.8,5.9-9.5c2.6-2.6,5.6-4.6,9.2-6c3.6-1.4,7.6-2.1,12-2.1c3.6,0,7.2,0.6,10.7,1.8c3.5,1.2,6.7,3,9.5,5.4
		c2.8,2.5,5,5.6,6.6,9.3c1.7,3.8,2.5,8.2,2.5,13.4c0,4.6-0.7,9.3-2.2,13.9c-1.5,4.7-3.5,8.9-6.1,12.7c-2.6,3.8-5.7,6.9-9.2,9.2
		c-3.5,2.4-7.4,3.6-11.5,3.6C53.2,146.1,49.4,144.9,45.8,142.5z M57.1,80.8c-3.1,0-6.2,0.5-9.3,1.5s-5.7,2.6-8.1,4.8
		c-2.3,2.2-4.2,4.9-5.7,8.1c-1.4,3.3-2.2,7.1-2.2,11.5c0,4.1,0.7,8.3,2,12.5c1.3,4.2,3.2,8,5.5,11.4c2.3,3.4,5,6.2,8.1,8.3
		c3.1,2.2,6.4,3.2,9.9,3.2s6.8-1.1,9.9-3.2c3.1-2.2,5.7-4.9,8-8.3c2.3-3.4,4.1-7.2,5.3-11.4c1.3-4.2,1.9-8.3,1.9-12.5
		c0-4.5-0.7-8.4-2.2-11.7c-1.5-3.3-3.4-6-5.8-8.1c-2.4-2.1-5.1-3.6-8.2-4.7C63.4,81.3,60.3,80.8,57.1,80.8z M51.6,106.7
		c-3.1-2.2-7.3-2.2-12.6,0l-2.3-3.4c1.4-1,3.8-1.9,7.1-2.6c3.4-0.7,6.7,0.2,10.2,2.6L51.6,106.7z M56.9,130.1c-1.5,0-3-0.2-4.7-0.7
		c-1.6-0.5-3.2-1.3-4.8-2.5l2.4-3.1c3.7,2.5,7.1,3.2,10.3,2c3.2-1.2,4.8-1.9,4.9-2l2.4,3.1c-0.3,0.2-1.4,0.8-3.4,1.8
		C62,129.7,59.6,130.1,56.9,130.1z M62.9,106.7l-2.3-3.4c1.4-1,3.8-1.9,7.1-2.6c3.4-0.7,6.7,0.2,10.1,2.6l-2.3,3.4
		C72.4,104.5,68.2,104.5,62.9,106.7z M88.2,122c-1.8-0.5-3.6-1.2-5.4-2.1l1.8-3.4c1.5,0.7,2.9,1.3,4.3,1.7c1.4,0.4,2.8,0.6,4.1,0.6
		c3.6,0,6.9-1.1,10-3.2c3.1-2.2,5.7-4.9,8-8.3c2.2-3.4,4-7.2,5.3-11.4c1.3-4.2,1.9-8.3,1.9-12.4c0-3.9-0.6-7.5-1.8-10.7
		c-1.2-3.2-2.9-5.9-5.1-8.2c-2.2-2.2-4.9-4-8-5.2c-3.1-1.2-6.6-1.8-10.4-1.8c-3.5,0-6.7,0.5-9.7,1.6c-3,1.1-5.5,2.6-7.7,4.6
		c-2.2,2-3.9,4.4-5.2,7.2c-1.3,2.8-2.1,6-2.4,9.6l-3.9-0.3c0.3-4.1,1.2-7.7,2.8-11c1.5-3.3,3.6-6.1,6.1-8.4c2.6-2.3,5.5-4.1,8.9-5.4
		c3.4-1.3,7.1-1.9,11.2-1.9c4.4,0,8.4,0.7,12,2.2c3.6,1.4,6.6,3.5,9.2,6.1c2.6,2.6,4.5,5.8,5.9,9.5c1.4,3.7,2.1,7.7,2.1,12.2
		c0,4.7-0.7,9.3-2.2,14c-1.4,4.7-3.5,8.9-6.1,12.6c-2.6,3.8-5.7,6.8-9.2,9.2c-3.5,2.4-7.4,3.6-11.7,3.6
		C91.6,122.8,89.9,122.5,88.2,122z M77.9,83.2c-1.4-0.3-2.7-1-4-2.1l2.1-3.1c3,2.1,5.7,2.6,8.2,1.6c2.4-1,3.7-1.6,3.8-1.6l2.1,3.1
		c0,0.1-0.8,0.6-2.4,1.4c-1.6,0.8-3.6,1.2-6,1.2C80.6,83.7,79.3,83.5,77.9,83.2z M83.6,102.6c0.1-0.1,2.2-1,6.3-2.7
		s8.5-0.8,13.4,2.7l-2.3,3.1c-3.7-2.6-7.1-3.3-10.4-2.1c-3.2,1.3-4.8,2-4.8,2.1L83.6,102.6z M100.3,83.2c-1.4-0.3-2.7-1-4-2.1l2-3.1
		c3,2.1,5.7,2.6,8.2,1.6c2.5-1,3.7-1.6,3.9-1.6l2.1,3.1c0,0.1-0.8,0.6-2.4,1.4c-1.6,0.8-3.6,1.2-5.9,1.2
		C102.9,83.7,101.6,83.5,100.3,83.2z"/>
</g>
</svg>
