<svg width="28" height="28" viewBox="0 0 28 28" fill="none" xmlns="http://www.w3.org/2000/svg">
    <g clip-path="url(#clip0)">
        <path d="M22.1083 17.249C21.5588 16.1033 19.593 14.5131 17.6937 12.9766C16.6343 12.1203 15.6333 11.3106 14.9952 10.6725C14.8353 10.5115 14.5962 10.4601 14.385 10.536C13.9919 10.6783 13.7492 10.788 13.5579 10.8731C13.2662 11.0038 13.1682 11.0481 12.775 11.0878C12.6012 11.1053 12.4449 11.1986 12.348 11.3433C11.5232 12.5764 10.6692 12.4714 10.0987 12.2801C9.91667 12.2195 9.88403 12.1413 9.86653 12.0666C9.74403 11.5545 10.3589 10.3621 11.1557 9.56529C13.0515 7.66829 14.0292 7.19343 16.0942 8.11629C18.4368 9.16393 20.7842 9.98414 20.8075 9.99229C21.1144 10.0984 21.4445 9.93743 21.5507 9.63293C21.6557 9.32843 21.4958 8.99593 21.1913 8.88979C21.168 8.88164 18.8673 8.07779 16.5713 7.04993C13.8962 5.85408 12.4285 6.64158 10.332 8.73929C9.53397 9.53729 8.45012 11.1519 8.73012 12.3361C8.85027 12.8401 9.20497 13.2135 9.73227 13.3873C11.0541 13.8236 12.2604 13.4059 13.1588 12.2136C13.5298 12.1565 13.7316 12.0725 14.0349 11.936C14.1446 11.887 14.2729 11.8298 14.4433 11.761C15.1106 12.3875 16.0113 13.1166 16.9598 13.8831C18.6748 15.2703 20.6196 16.843 21.0571 17.753C21.273 18.2021 21.0408 18.495 20.8833 18.6291C20.6523 18.8275 20.3361 18.8905 20.1646 18.7703C19.9756 18.6408 19.7295 18.6326 19.5346 18.7493C19.3386 18.8659 19.229 19.0864 19.2535 19.3128C19.2931 19.6838 18.9536 19.8961 18.8066 19.9696C18.4333 20.1586 18.0436 20.126 17.8978 19.9906C17.7344 19.839 17.4999 19.7946 17.2923 19.8716C17.0846 19.9498 16.9399 20.1411 16.9189 20.3628C16.8839 20.7454 16.6004 21.1129 16.2306 21.2564C16.0521 21.3241 15.7931 21.3649 15.5609 21.1526C15.4163 21.0219 15.2156 20.9717 15.0278 21.0172C14.8376 21.0639 14.6848 21.2016 14.6183 21.3847C14.5961 21.4431 14.5459 21.5831 13.9999 21.5831C13.6114 21.5831 12.9126 21.3206 12.5708 21.0942C12.1613 20.8247 9.59342 18.9091 7.37562 17.0517C7.06412 16.7892 6.52512 16.2269 6.04912 15.7299C5.62677 15.2889 5.24062 14.8887 5.04227 14.7207C4.79377 14.5107 4.42627 14.5422 4.21977 14.7896C4.01212 15.0357 4.04241 15.4044 4.28862 15.6121C4.46947 15.7649 4.81947 16.1347 5.20562 16.5372C5.72597 17.0809 6.26377 17.6432 6.62547 17.9466C8.79782 19.7654 11.4088 21.7289 11.9291 22.0707C12.3585 22.3531 13.2836 22.7497 14 22.7497C14.5751 22.7497 15.0173 22.6179 15.3241 22.3601C15.7348 22.5199 16.2015 22.5211 16.6506 22.3461C17.1815 22.1407 17.6178 21.7266 17.8651 21.2249C18.3248 21.3229 18.851 21.2541 19.3293 21.0138C19.7971 20.7781 20.1354 20.4176 20.3034 19.9964C20.7678 20.0209 21.2461 19.8564 21.6416 19.5169C22.3113 18.9441 22.4956 18.0528 22.1083 17.249Z" fill="#ED1E79"/>
        <path d="M11.6667 7.58313H6.41666C6.09466 7.58313 5.83331 7.84448 5.83331 8.16648C5.83331 8.48848 6.09466 8.74983 6.41666 8.74983H11.6667C11.9887 8.74983 12.25 8.48848 12.25 8.16648C12.25 7.84448 11.9887 7.58313 11.6667 7.58313Z" fill="#ED1E79"/>
        <path d="M23.8175 16.0076C23.6366 15.7405 23.275 15.667 23.0079 15.849L21.3022 16.9946C21.0351 17.1743 20.9639 17.5371 21.1436 17.8043C21.2567 17.9711 21.4411 18.0621 21.6289 18.0621C21.7398 18.0621 21.8529 18.0306 21.9533 17.963L23.6589 16.8173C23.926 16.6376 23.9971 16.2748 23.8175 16.0076Z" fill="#ED1E79"/>
        <path d="M20.1962 18.7913C19.7785 18.4623 17.9107 16.5502 16.7557 15.3462C16.5328 15.1128 16.163 15.1047 15.9308 15.3287C15.6975 15.5515 15.6905 15.9213 15.9133 16.1535C16.2132 16.4662 18.858 19.223 19.4728 19.7084C19.5789 19.7924 19.7073 19.8332 19.8333 19.8332C20.0048 19.8332 20.1763 19.7562 20.2929 19.6104C20.4925 19.3583 20.4494 18.9908 20.1962 18.7913Z" fill="#ED1E79"/>
        <path d="M17.8651 19.9615C17.1663 19.4026 15.4105 17.5371 15.0138 17.1055C14.7944 16.8675 14.4269 16.8535 14.1889 17.0705C13.9521 17.2886 13.9358 17.6585 14.1539 17.8953C14.1749 17.9175 16.2703 20.1797 17.1359 20.8727C17.2433 20.9578 17.3728 20.9998 17.4999 20.9998C17.6703 20.9998 17.8406 20.924 17.9561 20.7817C18.1569 20.5296 18.116 20.1621 17.8651 19.9615Z" fill="#ED1E79"/>
        <path d="M15.5435 21.1363C14.7116 20.4352 13.0095 18.6233 12.677 18.2675C12.4565 18.0318 12.0866 18.019 11.8521 18.2395C11.6165 18.46 11.6048 18.8286 11.8241 19.0643C12.3025 19.5765 13.9311 21.3032 14.791 22.0288C14.9006 22.121 15.0336 22.1665 15.1666 22.1665C15.3323 22.1665 15.498 22.0953 15.6135 21.9588C15.8211 21.7115 15.7896 21.344 15.5435 21.1363Z" fill="#ED1E79"/>
        <path d="M6.818 6.57633C5.81815 5.62898 1.82 5.32212 0.618351 5.25098C0.452703 5.24283 0.299852 5.29762 0.183203 5.40848C0.0665 5.51812 0 5.67213 0 5.83313V16.3331C0 16.6551 0.261352 16.9165 0.583351 16.9165H4.08335C4.33535 16.9165 4.55935 16.7543 4.6375 16.514C4.72265 16.2526 6.73285 10.0833 6.99765 7.04998C7.01285 6.87263 6.9475 6.69763 6.818 6.57633ZM3.6575 15.7498H1.16665V6.45848C3.0415 6.60663 5.0645 6.92863 5.7995 7.28563C5.49035 9.84063 4.0915 14.3801 3.6575 15.7498Z" fill="#ED1E79"/>
        <path d="M27.4167 6.41647C22.8363 6.41647 20.2953 7.58897 20.1891 7.63797C20.0375 7.70912 19.9243 7.84097 19.8776 8.00082C19.831 8.16068 19.8543 8.33218 19.9418 8.47447C20.6628 9.63532 22.9203 16.0823 23.3543 17.655C23.4243 17.9081 23.6542 18.0831 23.9167 18.0831H27.4167C27.7387 18.0831 28 17.8218 28 17.4998V6.99977C28 6.67662 27.7387 6.41647 27.4167 6.41647ZM26.8334 16.9165H24.353C23.8 15.1151 22.1666 10.4181 21.2555 8.47682C22.1456 8.17468 24.0579 7.65547 26.8334 7.59018V16.9165Z" fill="#ED1E79"/>
    </g>
    <defs>
        <clipPath id="clip0">
            <rect width="28" height="28" fill="white"/>
        </clipPath>
    </defs>
</svg>
