<svg width="42" height="42" viewBox="0 0 42 42" fill="none" xmlns="http://www.w3.org/2000/svg">
    <path d="M12.9161 11.2166H10.0707C8.95729 11.2166 8.4212 11.4228 8.4212 12.33V13.361C8.4212 14.2682 8.99853 14.4744 10.0707 14.4744H10.7305C11.1429 14.4744 11.3078 14.6806 11.3078 15.3404V28.8663C11.3078 29.9797 11.514 30.5158 12.4213 30.5158H13.4934C14.4007 30.5158 14.6068 29.9385 14.6068 28.8663V12.33C14.5656 11.4228 13.9883 11.2166 12.9161 11.2166Z" fill="black"/>
    <path d="M32.4628 1.81445C31.2256 0.618564 29.6998 0 27.8441 0H13.9471C12.0914 0 10.5243 0.618564 9.32846 1.81445L1.94692 9.15475C0.79227 10.3094 0.173706 11.8352 0.173706 13.5259V27.6704C0.173706 29.6086 0.833508 31.1344 2.15311 32.4128L9.16351 39.4232C10.5243 40.784 12.0914 41.4438 14.0708 41.4026H27.8029C29.6998 41.4026 31.2669 40.8252 32.7102 39.4232L39.7206 32.4128C40.9989 31.1344 41.7 29.6086 41.7 27.6704V13.5259C41.7 11.8352 41.0814 10.3094 39.9268 9.15475L32.4628 1.81445ZM38.8958 18.3507C38.8958 18.8043 38.6896 19.0518 38.236 19.0518H36.1329V17.5672C36.1329 16.4538 35.968 15.9177 35.0195 15.9177H34.071C33.1226 15.9177 32.9576 16.495 32.9576 17.5672V19.0518H31.5143C30.4009 19.0518 29.8648 19.2167 29.8648 20.1652V21.1549C29.8648 22.1034 30.4421 22.2683 31.5143 22.2683H32.9988V23.7529C32.9988 24.8663 33.1638 25.4024 34.1123 25.4024H35.0607C36.0092 25.4024 36.1741 24.825 36.1741 23.7529V22.2683H38.2773C38.6896 22.2683 38.8958 22.4745 38.9371 22.8869V27.6704C38.9371 28.8251 38.6072 29.6911 37.7824 30.4746L30.772 37.485C29.9473 38.3097 29.04 38.6809 27.9266 38.6809H13.9058C12.7924 38.6809 11.8852 38.3097 11.0604 37.485L4.05004 30.4746C3.22529 29.6498 2.85415 28.8251 2.89539 27.6704V13.8558C2.89539 12.7012 3.26653 11.7115 4.13252 10.8455L11.2254 3.62891C11.9264 2.92787 12.8749 2.68044 13.9058 2.68044H27.8854C28.9163 2.68044 29.8235 2.88663 30.5658 3.62891L37.6999 10.8455C38.5247 11.7115 38.9371 12.7012 38.9371 13.8558V18.3507H38.8958Z" fill="black"/>
    <path d="M26.5246 20.4951C28.2978 19.2167 28.2978 17.8971 28.2978 16.8249V15.7527C28.0916 12.2063 26.937 10.8455 22.8132 10.8455C18.6894 10.8455 17.5348 12.2063 17.3286 15.7527V16.8249C17.3286 17.8971 17.3698 19.2167 19.1018 20.4951C16.9987 21.3198 16.8337 23.093 16.8337 25.4436C16.8337 28.9075 18.0709 30.6395 22.772 30.722C27.5143 30.6395 28.7102 28.9075 28.7102 25.4436C28.7926 23.093 28.6277 21.3198 26.5246 20.4951ZM22.8544 13.7733C24.5864 13.7733 25.2875 14.3919 25.2875 16.495C25.2875 18.5157 24.5864 19.2167 22.8544 19.2167C21.1225 19.2167 20.4214 18.5157 20.4214 16.495C20.4214 14.3919 21.1225 13.7733 22.8544 13.7733ZM22.8544 27.7941C20.8338 27.7941 20.1327 27.0106 20.1327 25.0312C20.1327 23.0518 20.8338 22.1446 22.8544 22.1446C24.8751 22.1446 25.5761 23.0518 25.5761 25.0312C25.5761 27.0106 24.8338 27.7941 22.8544 27.7941Z" fill="black"/>
</svg>
