<?xml version="1.0" encoding="utf-8"?>
<!-- Generator: Adobe Illustrator 19.0.0, SVG Export Plug-In . SVG Version: 6.00 Build 0)  -->
<svg version="1.1" id="Capa_1" xmlns="http://www.w3.org/2000/svg" xmlns:xlink="http://www.w3.org/1999/xlink" x="0px" y="0px"
	 viewBox="-419 -163.1 399.1 399.1" style="enable-background:new -419 -163.1 399.1 399.1;" xml:space="preserve">
<g>
	<g>
		<path d="M-47.2-63c-2-3.5-6.4-4.6-9.9-2.6l-35.4,20.4c-3.5,2-4.6,6.4-2.6,9.9c2,3.5,6.4,4.6,9.9,2.6l35.4-20.4
			C-46.3-55.2-45.1-59.6-47.2-63z"/>
	</g>
</g>
<g>
	<g>
		<path d="M-49.8,126.1l-35.4-20.4c-3.5-2-7.9-0.8-9.9,2.6c-2,3.5-0.8,7.9,2.6,9.9l35.4,20.4c3.5,2,7.9,0.8,9.9-2.6
			C-45.1,132.5-46.3,128.1-49.8,126.1z"/>
	</g>
</g>
<g>
	<g>
		<path d="M-218.9,179.5c-4-0.3-7.5,2.7-7.8,6.7c0,0.4,0,0.7,0,1.1v40.8c-0.3,4,2.7,7.5,6.7,7.8s7.5-2.7,7.8-6.7c0-0.4,0-0.7,0-1.1
			v-40.8C-211.9,183.3-214.9,179.8-218.9,179.5z"/>
	</g>
</g>
<g>
	<g>
		<path d="M-346.5-45.2l-35.4-20.4c-3.5-2-7.9-0.8-9.9,2.6c-2,3.5-0.8,7.9,2.6,9.9l35.4,20.4c3.5,2,7.9,0.8,9.9-2.6
			C-341.9-38.8-343-43.2-346.5-45.2z"/>
	</g>
</g>
<g>
	<g>
		<path d="M-218.9-163.1c-4-0.3-7.5,2.7-7.8,6.7c0,0.4,0,0.7,0,1.1v40.8c0,4,3.3,7.2,7.2,7.2c4,0,7.3-3.3,7.3-7.3v-40.8
			C-211.9-159.3-214.9-162.8-218.9-163.1z"/>
	</g>
</g>
<g>
	<g>
		<path d="M-288.7-97.9l-20.4-35.4c-2-3.5-6.4-4.6-9.9-2.6c-3.5,2-4.6,6.4-2.6,9.9l20.4,35.4c2,3.5,6.4,4.6,9.9,2.6
			C-287.8-90-286.6-94.4-288.7-97.9z"/>
	</g>
</g>
<g>
	<g>
		<path d="M-21,35.9c-0.3-3.6-3.1-6.5-6.7-6.7h-40.8c-4-0.3-7.5,2.7-7.8,6.7s2.7,7.5,6.7,7.8c0.4,0,0.7,0,1.1,0h40.8
			C-23.7,43.4-20.7,39.9-21,35.9z"/>
	</g>
</g>
<g>
	<g>
		<path d="M-369.3,29.2c-0.4,0-0.7,0-1.1,0h-40.8c-4,0.3-7,3.8-6.7,7.8c0.3,3.6,3.1,6.5,6.7,6.7h40.8c4,0.3,7.5-2.7,7.8-6.7
			C-362.2,33-365.3,29.5-369.3,29.2z"/>
	</g>
</g>
<g>
	<g>
		<path d="M-219.4-70.4c-59,0-106.8,47.8-106.9,106.8c0,28.3,11.3,55.5,31.3,75.6c20,20.1,47.2,31.3,75.5,31.3
			c59,0,106.8-47.8,106.9-106.8S-160.4-70.4-219.4-70.4z M-154.2,101.9c-36.1,36.1-94.5,36.1-130.6,0c-17.3-17.3-27.1-40.9-27-65.4
			c0-24.5,9.7-48,27-65.3v0.1c36.1-36.1,94.5-36.1,130.6,0C-118.1,7.4-118.1,65.8-154.2,101.9z"/>
	</g>
</g>
<g>
	<g>
		<path d="M-117.3,198.9C-117.3,198.9-117.3,198.9-117.3,198.9l-20.5-35.4c-2-3.5-6.4-4.6-9.9-2.6s-4.6,6.4-2.6,9.9l20.4,35.4
			c2,3.5,6.4,4.6,9.9,2.6C-116.5,206.8-115.3,202.4-117.3,198.9z"/>
	</g>
</g>
<g>
	<g>
		<path d="M-119.7-135.8c-3.5-2-7.9-0.8-9.9,2.6l-20.4,35.4c-2,3.4-0.9,7.9,2.6,9.9c0,0,0,0,0,0l0,0c3.5,2,7.9,0.8,9.9-2.6
			c0,0,0,0,0,0l20.4-35.4C-115.1-129.4-116.3-133.8-119.7-135.8z"/>
	</g>
</g>
<g>
	<g>
		<path d="M-291.2,160.9c-3.5-2-7.9-0.8-9.9,2.6l-20.4,35.4c-2,3.5-0.8,7.9,2.6,9.9s7.9,0.8,9.9-2.6l20.4-35.4
			C-286.6,167.3-287.8,162.9-291.2,160.9z"/>
	</g>
</g>
<g>
	<g>
		<path d="M-343.9,108.2c-2-3.5-6.4-4.6-9.9-2.6l-35.4,20.4c-3.5,2-4.6,6.4-2.6,9.9c2,3.5,6.4,4.6,9.9,2.6l35.4-20.4
			C-343,116.1-341.9,111.7-343.9,108.2z"/>
	</g>
</g>
</svg>
