<svg width="31" height="31" viewBox="0 0 31 31" fill="none" xmlns="http://www.w3.org/2000/svg">
    <g clip-path="url(#clip0)">
        <path d="M28.5827 25.796L24.0522 17.837C24.5113 17.6227 24.7868 17.1329 24.7562 16.5819L24.4195 13.7657L26.348 11.7453C26.7766 11.3167 26.8072 10.5821 26.3786 10.0617L24.4501 7.98006L24.8481 5.13318C24.9093 4.52095 24.4807 3.90872 23.8685 3.78627L21.0828 3.23527L19.7359 0.755724C19.4604 0.174104 18.787 -0.0707894 18.1747 0.174104H18.1441L15.5727 1.36796L13.0626 0.143492C12.7871 -0.00956613 12.4504 -0.0401777 12.1442 0.0516571C11.8381 0.143492 11.5932 0.357773 11.4402 0.633278L10.0626 3.11282L7.27699 3.6026C6.63414 3.72505 6.20558 4.30667 6.2668 4.98013L6.60353 7.7964L4.675 9.81676C4.24644 10.2453 4.21583 10.98 4.64439 11.5004L6.57292 13.582L6.17497 16.4289C6.11375 16.9799 6.45047 17.5003 6.97087 17.7146L2.40974 25.796C2.28729 25.9797 2.31791 26.2246 2.40974 26.4083C2.53219 26.5919 2.71586 26.7144 2.93014 26.7144H7.828L10.0626 30.602C10.1851 30.7857 10.3688 30.9082 10.583 30.9082C10.7973 30.9082 11.0116 30.7857 11.1034 30.602L15.4809 23.1328L19.8584 30.6939C19.9808 30.8776 20.1645 31 20.3788 31C20.593 31 20.8073 30.8776 20.8992 30.6939L23.1338 26.7144H28.0317C28.2459 26.7144 28.4602 26.5919 28.5521 26.4083C28.7051 26.2246 28.7051 25.9797 28.5827 25.796ZM10.6137 29.0715L8.71573 25.796C8.59329 25.6124 8.40962 25.4899 8.19534 25.4899H3.97093L8.19534 18.0207L9.9402 18.3268L11.2871 20.8063C11.5626 21.388 12.2361 21.6328 12.8483 21.388H12.8789L14.134 20.8063L14.7462 21.8777L10.6137 29.0715ZM12.3891 20.2859C12.3585 20.2859 12.3585 20.2859 12.3585 20.2859L11.0116 17.7452C10.8279 17.4391 10.5218 17.1942 10.1545 17.1635L7.33821 16.6432L7.73616 13.8269C7.79739 13.4595 7.67494 13.0616 7.43005 12.8167L5.53213 10.7351L7.46066 8.71474C7.73616 8.43924 7.85861 8.0719 7.79739 7.70456L7.46066 4.9189C7.46066 4.9189 7.46066 4.88829 7.49127 4.85768L10.2769 4.36789C10.6137 4.30667 10.9504 4.09239 11.1341 3.75566L12.5116 1.27612L15.0217 2.50059C15.3585 2.68426 15.787 2.68426 16.1237 2.50059L18.6645 1.33734C18.6951 1.33734 18.6951 1.33734 18.6951 1.33734L20.042 3.87811C20.2257 4.18423 20.5318 4.42912 20.8685 4.45973L23.6542 5.01074L23.2563 7.82701C23.195 8.19435 23.3175 8.5923 23.5624 8.83719L25.4909 10.9188L23.5318 12.9391C23.2563 13.2147 23.1338 13.582 23.195 13.9493L23.5318 16.7656L20.7767 17.2248C20.44 17.286 20.1033 17.5003 19.9196 17.837L18.5421 20.3165L16.0319 19.0921C15.6952 18.9084 15.2666 18.9084 14.9299 19.0921L12.3891 20.2859ZM22.7971 25.4899C22.5828 25.4899 22.3685 25.6124 22.2767 25.796L20.3788 29.1633L16.0625 21.6941C16.0319 21.6022 16.0013 21.541 15.9401 21.4798L15.2666 20.2859L15.4809 20.1941L17.9911 21.4186C18.1747 21.5104 18.3584 21.541 18.5421 21.541C18.9706 21.541 19.3992 21.3267 19.6135 20.9288L20.991 18.4492L22.8277 18.1125L27.0215 25.4899H22.7971Z" fill="#ED1E79"/>
        <path d="M21.6032 10.7963C21.6032 7.42906 18.8482 4.67401 15.4809 4.67401C12.1136 4.67401 9.35858 7.42906 9.35858 10.7963C9.35858 14.1636 12.1136 16.9187 15.4809 16.9187C18.8482 16.9187 21.6032 14.1636 21.6032 10.7963ZM15.4809 15.6942C12.7871 15.6942 10.583 13.4902 10.583 10.7963C10.583 8.10251 12.7871 5.89848 15.4809 5.89848C18.1747 5.89848 20.3788 8.10251 20.3788 10.7963C20.3788 13.4902 18.1747 15.6942 15.4809 15.6942Z" fill="#ED1E79"/>
    </g>
    <defs>
        <clipPath id="clip0">
            <rect width="31" height="31" fill="white"/>
        </clipPath>
    </defs>
</svg>
