<svg xmlns="http://www.w3.org/2000/svg" xmlns:xlink="http://www.w3.org/1999/xlink" preserveAspectRatio="xMidYMid" width="13" height="13" viewBox="0 0 13 13">
  <defs>
    <style>

      .cls-2 {
        fill: #ffffff;
      }
    </style>
  </defs>
  <path d="M12.726,11.309 C12.726,11.309 11.312,12.721 11.312,12.721 C11.312,12.721 6.364,7.776 6.364,7.776 C6.364,7.776 1.416,12.721 1.416,12.721 C1.416,12.721 0.002,11.309 0.002,11.309 C0.002,11.309 4.951,6.364 4.951,6.364 C4.951,6.364 0.002,1.419 0.002,1.419 C0.002,1.419 1.416,0.007 1.416,0.007 C1.416,0.007 6.364,4.952 6.364,4.952 C6.364,4.952 11.312,0.007 11.312,0.007 C11.312,0.007 12.726,1.419 12.726,1.419 C12.726,1.419 7.777,6.364 7.777,6.364 C7.777,6.364 12.726,11.309 12.726,11.309 Z" id="path-1" class="cls-2" fill-rule="evenodd"/>
</svg>
