<svg width="30" height="30" viewBox="-5 -5 40 40" fill="none" xmlns="http://www.w3.org/2000/svg">
    <path d="M11.7195 17.0186C11.7135 16.9888 11.7046 16.9594 11.6929 16.9314C11.6813 16.903 11.6668 16.876 11.6501 16.8508C11.6328 16.8252 11.6132 16.8014 11.5918 16.78C11.4837 16.6718 11.3229 16.6219 11.1714 16.6527C11.1415 16.6588 11.1122 16.6676 11.0842 16.6793C11.0558 16.6909 11.0287 16.7054 11.0036 16.7222C10.9779 16.7389 10.9542 16.7585 10.9327 16.78C10.9113 16.8014 10.8917 16.8252 10.8749 16.8508C10.8581 16.876 10.8437 16.903 10.832 16.9314C10.8204 16.9594 10.8115 16.9888 10.8055 17.0186C10.7994 17.0484 10.7961 17.0792 10.7961 17.1095C10.7961 17.1398 10.7994 17.1706 10.8055 17.2008C10.8115 17.2302 10.8204 17.2596 10.832 17.288C10.8437 17.316 10.8581 17.343 10.8749 17.3682C10.8917 17.3938 10.9113 17.4176 10.9327 17.439C10.9542 17.4605 10.9779 17.48 11.0036 17.4973C11.0287 17.5141 11.0558 17.5285 11.0842 17.5402C11.1122 17.5518 11.1415 17.5607 11.1714 17.5667C11.2012 17.5728 11.232 17.5756 11.2623 17.5756C11.3848 17.5756 11.5051 17.5257 11.5918 17.439C11.6132 17.4176 11.6328 17.3938 11.6501 17.3682C11.6668 17.343 11.6813 17.316 11.6929 17.288C11.7046 17.2596 11.7135 17.2302 11.7195 17.2008C11.7256 17.1706 11.7284 17.1398 11.7284 17.1095C11.7284 17.0792 11.7256 17.0484 11.7195 17.0186Z" fill="#ED1E79"/>
    <path d="M26.5117 26.1055H25.5003V20.6577V18.4237C25.5003 17.5829 24.8446 16.8989 24.0387 16.8989H23.2048V13.8169V11.8742C23.2048 11.0334 22.5492 10.3493 21.7432 10.3493H20.2443V8.87035C20.5792 8.78212 20.8963 8.60195 21.1579 8.32911C21.759 7.70204 21.9101 6.74646 21.5338 5.95113L20.1938 3.11912C20.1116 2.94526 19.9418 2.83518 19.756 2.83518C19.5702 2.83518 19.4004 2.94526 19.3182 3.11912L17.9782 5.95118C17.602 6.7464 17.753 7.70204 18.3542 8.32916C18.6157 8.602 18.9328 8.78217 19.2677 8.8704V10.3494H14.9883V8.15958C15.3232 8.07136 15.6403 7.89118 15.9019 7.61835C16.503 6.99127 16.654 6.03569 16.2778 5.24036L14.9378 2.4083C14.8556 2.23444 14.6858 2.12436 14.5 2.12436C14.3142 2.12436 14.1444 2.23444 14.0622 2.4083L12.7222 5.24041C12.346 6.03569 12.4971 6.99127 13.0981 7.61835C13.3597 7.89118 13.6768 8.07136 14.0117 8.15958V10.3494H9.73228V8.87198C10.075 8.78182 10.3894 8.5967 10.6458 8.32916C11.247 7.70209 11.398 6.74646 11.0218 5.95118L9.68184 3.11912C9.59956 2.94526 9.42983 2.83518 9.24399 2.83518C9.05815 2.83518 8.88843 2.94526 8.80615 3.11912L7.46621 5.95123C7.08999 6.74646 7.24106 7.70209 7.84214 8.32921C8.09858 8.59675 8.41294 8.78187 8.75571 8.87203V10.3494H7.25679C6.45083 10.3494 5.79517 11.0335 5.79517 11.8743V13.8171V16.899H4.96133C4.15537 16.899 3.49971 17.583 3.49971 18.4238V20.6578V26.1056H2.48828C2.2186 26.1056 2 26.3336 2 26.615C2 26.8963 2.2186 27.1244 2.48828 27.1244H3.98799H25.012H26.5117C26.7814 27.1244 27 26.8963 27 26.615C27 26.3336 26.7814 26.1055 26.5117 26.1055ZM19.0447 7.60867C18.7396 7.2905 18.663 6.8056 18.854 6.40205L19.7561 4.49541L20.6582 6.40205C20.8491 6.8056 20.7724 7.2905 20.4674 7.60867C20.3997 7.67932 20.3243 7.73693 20.2444 7.78319C19.9416 7.95852 19.5706 7.95852 19.2678 7.78319C19.1878 7.73698 19.1124 7.67937 19.0447 7.60867ZM13.7887 6.8979C13.4837 6.57973 13.407 6.09483 13.5979 5.69128L14.5 3.7847L15.4021 5.69133C15.593 6.09488 15.5164 6.57978 15.2114 6.89795C15.1437 6.96861 15.0682 7.02622 14.9883 7.07247C14.6856 7.24781 14.3146 7.24781 14.0118 7.07247C13.9318 7.02617 13.8564 6.96861 13.7887 6.8979ZM8.53267 7.60867C8.22764 7.2905 8.15103 6.8056 8.34194 6.40205L9.24404 4.49541L10.1461 6.40205C10.3371 6.80555 10.2604 7.29044 9.95542 7.60867C9.8877 7.67932 9.81226 7.73693 9.73237 7.78319C9.42964 7.95852 9.05859 7.95852 8.75581 7.78319C8.67583 7.73698 8.60039 7.67937 8.53267 7.60867ZM7.25679 11.3681H21.7433C22.0107 11.3681 22.2283 11.5951 22.2283 11.8742V13.4735C22.0132 13.544 21.7814 13.5764 21.5079 13.5764C20.7796 13.5764 20.4473 13.3453 20.0266 13.0527C19.5583 12.727 19.0275 12.3579 18.0037 12.3579C16.9798 12.3579 16.4491 12.727 15.9808 13.0527C15.5601 13.3453 15.2278 13.5764 14.4997 13.5764C13.7715 13.5764 13.4392 13.3453 13.0186 13.0527C12.5503 12.7271 12.0196 12.3579 10.9958 12.3579C9.97197 12.3579 9.44126 12.7271 8.973 13.0527C8.55234 13.3453 8.22007 13.5764 7.49199 13.5764C7.21855 13.5764 6.98687 13.5439 6.77178 13.4735V11.8742H6.77173C6.77173 11.5951 6.98936 11.3681 7.25679 11.3681ZM24.5237 26.1055H4.47627V21.2097C4.89141 21.2893 5.15586 21.4729 5.46909 21.6908C5.93735 22.0165 6.46807 22.3856 7.49194 22.3856C8.51572 22.3856 9.04644 22.0164 9.5147 21.6908C9.93535 21.3982 10.2676 21.1671 10.9957 21.1671C11.7238 21.1671 12.0562 21.3982 12.4768 21.6908C12.9451 22.0165 13.4758 22.3856 14.4996 22.3856C15.5235 22.3856 16.0542 22.0164 16.5225 21.6908C16.9432 21.3982 17.2754 21.1671 18.0036 21.1671C18.7318 21.1671 19.0642 21.3982 19.4849 21.6908C19.9532 22.0164 20.4839 22.3856 21.5078 22.3856C22.5317 22.3856 23.0625 22.0164 23.5308 21.6908C23.844 21.4729 24.1085 21.2893 24.5237 21.2096V26.1055ZM24.5237 20.1791C23.8068 20.2743 23.3765 20.5736 22.9891 20.843C22.5684 21.1356 22.236 21.3668 21.5078 21.3668C20.7796 21.3668 20.4473 21.1356 20.0266 20.843C19.5583 20.5174 19.0275 20.1482 18.0036 20.1482C16.9798 20.1482 16.449 20.5174 15.9808 20.843C15.5601 21.1356 15.2278 21.3668 14.4996 21.3668C13.7714 21.3668 13.4392 21.1356 13.0185 20.843C12.5502 20.5173 12.0195 20.1482 10.9957 20.1482C9.97188 20.1482 9.44116 20.5174 8.9729 20.843C8.55225 21.1356 8.21997 21.3668 7.49189 21.3668C6.76372 21.3668 6.43145 21.1356 6.01079 20.843C5.62334 20.5736 5.19316 20.2743 4.47627 20.1791V18.4237C4.47627 18.1446 4.6939 17.9177 4.96133 17.9177H8.70864C8.97832 17.9177 9.19692 17.6896 9.19692 17.4083C9.19692 17.1269 8.97832 16.8989 8.70864 16.8989H6.77173V14.5235C6.99644 14.5714 7.23384 14.5953 7.49194 14.5953C8.51572 14.5953 9.04644 14.2261 9.5147 13.9005C9.93535 13.6079 10.2676 13.3768 10.9957 13.3768C11.7239 13.3768 12.0562 13.6079 12.4768 13.9005C12.9451 14.2261 13.4758 14.5953 14.4996 14.5953C15.5234 14.5953 16.0542 14.2261 16.5225 13.9005C16.9432 13.6079 17.2754 13.3768 18.0036 13.3768C18.7318 13.3768 19.0642 13.6079 19.4849 13.9005C19.9532 14.2262 20.4839 14.5953 21.5078 14.5953C21.766 14.5953 22.0035 14.5714 22.2283 14.5234V16.8989H12.602C12.3323 16.8989 12.1137 17.127 12.1137 17.4083C12.1137 17.6897 12.3323 17.9177 12.602 17.9177H24.0387C24.3062 17.9177 24.5237 18.1447 24.5237 18.4237V20.1791Z" fill="#ED1E79"/>
    <path d="M7.54595 23.9096C7.53989 23.8798 7.53104 23.8504 7.51938 23.8225C7.50773 23.7945 7.49328 23.7675 7.4765 23.7418C7.45926 23.7167 7.44015 23.6929 7.41824 23.671C7.3968 23.6495 7.37302 23.6304 7.34739 23.6132C7.32222 23.5964 7.29518 23.582 7.26722 23.5703C7.23925 23.5586 7.20988 23.5498 7.18005 23.5437C7.02857 23.5134 6.86776 23.5628 6.75915 23.671C6.73771 23.6929 6.71813 23.7167 6.70135 23.7418C6.68457 23.7675 6.67012 23.7945 6.65847 23.8225C6.64682 23.8504 6.63796 23.8798 6.6319 23.9096C6.62584 23.9399 6.62305 23.9702 6.62305 24.001C6.62305 24.0313 6.62584 24.0616 6.6319 24.0919C6.63796 24.1217 6.64682 24.1511 6.65847 24.179C6.67012 24.207 6.68457 24.2341 6.70135 24.2597C6.71813 24.2849 6.73771 24.3086 6.75915 24.3305C6.84585 24.4172 6.96611 24.4671 7.08916 24.4671C7.11946 24.4671 7.14976 24.4638 7.18005 24.4578C7.20988 24.4517 7.23925 24.4429 7.26722 24.4312C7.29518 24.4196 7.32222 24.4051 7.34739 24.3883C7.37302 24.3711 7.3968 24.352 7.41824 24.3305C7.44015 24.3086 7.45926 24.2849 7.4765 24.2597C7.49328 24.2341 7.50773 24.207 7.51938 24.179C7.53104 24.1511 7.53989 24.1217 7.54595 24.0919C7.55201 24.0616 7.55528 24.0313 7.55528 24.001C7.55528 23.9702 7.55201 23.94 7.54595 23.9096Z" fill="#ED1E79"/>
    <path d="M12.5558 22.5159C12.5498 22.4861 12.5409 22.4568 12.5293 22.4288C12.5176 22.4008 12.5031 22.3738 12.4864 22.3481C12.4691 22.323 12.4495 22.2987 12.4281 22.2773C12.4067 22.2559 12.3829 22.2363 12.3573 22.2195C12.3321 22.2027 12.305 22.1883 12.2771 22.1766C12.2486 22.165 12.2193 22.1561 12.1899 22.15C12.1298 22.1379 12.0678 22.1379 12.0077 22.15C11.9778 22.1561 11.9485 22.165 11.9205 22.1766C11.8921 22.1883 11.865 22.2027 11.8399 22.2195C11.8142 22.2363 11.7905 22.2559 11.769 22.2773C11.7476 22.2987 11.728 22.323 11.7112 22.3481C11.6944 22.3738 11.68 22.4008 11.6683 22.4288C11.6567 22.4568 11.6478 22.4861 11.6418 22.5159C11.6357 22.5462 11.6324 22.5765 11.6324 22.6068C11.6324 22.6376 11.6357 22.6679 11.6418 22.6982C11.6478 22.728 11.6567 22.7574 11.6683 22.7854C11.68 22.8133 11.6944 22.8404 11.7112 22.866C11.728 22.8912 11.7476 22.9154 11.769 22.9368C11.7905 22.9583 11.8142 22.9774 11.8399 22.9946C11.865 23.0114 11.8921 23.0259 11.9205 23.0375C11.9485 23.0492 11.9778 23.058 12.0077 23.0641C12.0375 23.0701 12.0683 23.0734 12.0986 23.0734C12.1289 23.0734 12.1596 23.0701 12.1899 23.0641C12.2193 23.058 12.2486 23.0492 12.2771 23.0375C12.305 23.0259 12.3321 23.0114 12.3573 22.9946C12.3829 22.9774 12.4067 22.9583 12.4281 22.9368C12.4495 22.9154 12.4691 22.8912 12.4864 22.866C12.5031 22.8404 12.5176 22.8133 12.5293 22.7854C12.5409 22.7574 12.5498 22.728 12.5558 22.6982C12.5619 22.6679 12.5647 22.6376 12.5647 22.6068C12.5647 22.5765 12.5619 22.5462 12.5558 22.5159Z" fill="#ED1E79"/>
    <path d="M17.9446 23.9096C17.9385 23.8798 17.9297 23.8504 17.918 23.8224C17.9064 23.7945 17.8919 23.7674 17.8751 23.7418C17.8583 23.7166 17.8388 23.6929 17.8173 23.6709C17.7959 23.6495 17.7721 23.6304 17.7465 23.6131C17.7213 23.5964 17.6943 23.5819 17.6658 23.5703C17.6379 23.5586 17.6085 23.5498 17.5787 23.5437C17.5185 23.5316 17.4566 23.5316 17.3964 23.5437C17.3671 23.5498 17.3377 23.5586 17.3093 23.5703C17.2813 23.5819 17.2543 23.5964 17.2291 23.6131C17.2035 23.6304 17.1797 23.6495 17.1582 23.6709C17.1368 23.6929 17.1172 23.7166 17.1 23.7418C17.0832 23.7674 17.0687 23.7945 17.0571 23.8224C17.0454 23.8504 17.0366 23.8798 17.0305 23.9096C17.0245 23.9399 17.0217 23.9702 17.0217 24.001C17.0217 24.0312 17.0245 24.0615 17.0305 24.0918C17.0366 24.1217 17.0454 24.151 17.0571 24.179C17.0687 24.207 17.0832 24.234 17.1 24.2596C17.1172 24.2848 17.1368 24.309 17.1582 24.3305C17.1797 24.3519 17.2035 24.3715 17.2291 24.3883C17.2543 24.4051 17.2813 24.4195 17.3093 24.4312C17.3377 24.4428 17.3671 24.4517 17.3964 24.4577C17.4267 24.4638 17.4575 24.4671 17.4878 24.4671C17.6104 24.4671 17.7306 24.4172 17.8173 24.3305C17.8388 24.309 17.8583 24.2848 17.8751 24.2596C17.8919 24.234 17.9064 24.207 17.918 24.179C17.9297 24.151 17.9385 24.1217 17.9446 24.0918C17.9506 24.0615 17.9539 24.0312 17.9539 24.001C17.9539 23.9702 17.9506 23.9399 17.9446 23.9096Z" fill="#ED1E79"/>
    <path d="M23.233 22.7947C23.227 22.7649 23.2181 22.7355 23.2065 22.7076C23.1948 22.6796 23.1804 22.6521 23.1636 22.6269C23.1468 22.6017 23.1272 22.5775 23.1058 22.5561C23.0186 22.4694 22.8988 22.4195 22.7762 22.4195C22.6532 22.4195 22.5334 22.4694 22.4462 22.5561C22.4248 22.5775 22.4057 22.6017 22.3884 22.6269C22.3716 22.6521 22.3572 22.6796 22.3455 22.7076C22.3339 22.7355 22.325 22.7649 22.319 22.7947C22.3129 22.8245 22.3101 22.8553 22.3101 22.8856C22.3101 22.9164 22.3129 22.9467 22.319 22.977C22.325 23.0068 22.3339 23.0362 22.3455 23.0641C22.3572 23.0921 22.3716 23.1191 22.3884 23.1443C22.4057 23.1699 22.4248 23.1937 22.4462 23.2156C22.4681 23.2371 22.4919 23.2562 22.5171 23.2734C22.5427 23.2902 22.5697 23.3046 22.5977 23.3163C22.6257 23.328 22.655 23.3368 22.6849 23.3429C22.7152 23.3489 22.7455 23.3517 22.7762 23.3517C22.8988 23.3517 23.0191 23.3023 23.1058 23.2156C23.1272 23.1937 23.1468 23.1699 23.1636 23.1443C23.1804 23.1191 23.1948 23.0921 23.2065 23.0641C23.2181 23.0357 23.227 23.0068 23.233 22.977C23.2391 22.9467 23.2423 22.9164 23.2423 22.8856C23.2423 22.8553 23.2391 22.8245 23.233 22.7947Z" fill="#ED1E79"/>
    <path d="M18.5952 15.1756C18.5892 15.1462 18.5803 15.1169 18.5687 15.0884C18.557 15.0605 18.5426 15.0334 18.5258 15.0083C18.5086 14.9826 18.489 14.9588 18.4675 14.9374C18.4461 14.9155 18.4223 14.8964 18.3967 14.8791C18.3715 14.8624 18.3445 14.8479 18.3165 14.8363C18.2881 14.8246 18.2587 14.8157 18.2293 14.8097C18.1692 14.7976 18.1072 14.7976 18.0471 14.8097C18.0173 14.8157 17.9879 14.8246 17.9599 14.8363C17.9315 14.8479 17.9045 14.8624 17.8793 14.8791C17.8537 14.8964 17.8299 14.9155 17.8084 14.9374C17.787 14.9588 17.7674 14.9826 17.7506 15.0083C17.7339 15.0334 17.7194 15.0605 17.7078 15.0884C17.6961 15.1169 17.6873 15.1462 17.6812 15.1756C17.6751 15.2059 17.6719 15.2366 17.6719 15.2669C17.6719 15.2972 17.6751 15.328 17.6812 15.3578C17.6873 15.3877 17.6961 15.417 17.7078 15.445C17.7194 15.473 17.7339 15.5005 17.7506 15.5256C17.7674 15.5513 17.787 15.575 17.8084 15.5965C17.8299 15.6179 17.8537 15.6375 17.8793 15.6543C17.9045 15.6711 17.9315 15.6855 17.9599 15.6972C17.9879 15.7088 18.0173 15.7177 18.0471 15.7237C18.0769 15.7298 18.1077 15.7331 18.138 15.7331C18.1683 15.7331 18.1991 15.7298 18.2293 15.7237C18.2587 15.7177 18.2881 15.7088 18.3165 15.6972C18.3445 15.6855 18.3715 15.6711 18.3967 15.6543C18.4223 15.6375 18.4461 15.6179 18.4675 15.5965C18.489 15.575 18.5086 15.5513 18.5258 15.5256C18.5426 15.5005 18.557 15.473 18.5687 15.445C18.5803 15.417 18.5892 15.3877 18.5952 15.3578C18.6013 15.328 18.6041 15.2972 18.6041 15.2669C18.6041 15.2366 18.6013 15.2059 18.5952 15.1756Z" fill="#ED1E79"/>
    <path d="M12.5091 14.5408C12.503 14.5109 12.4942 14.4816 12.4825 14.4536C12.4709 14.4256 12.4564 14.3986 12.4396 14.373C12.4229 14.3478 12.4033 14.3235 12.3818 14.3021C12.3604 14.2807 12.3362 14.2611 12.311 14.2443C12.2854 14.2275 12.2583 14.2131 12.2304 14.2014C12.2024 14.1898 12.173 14.1809 12.1432 14.1749C12.0831 14.1627 12.0211 14.1627 11.9609 14.1749C11.9311 14.1809 11.9017 14.1898 11.8738 14.2014C11.8458 14.2131 11.8188 14.2275 11.7931 14.2443C11.768 14.2611 11.7442 14.2807 11.7223 14.3021C11.7008 14.3235 11.6817 14.3478 11.6645 14.373C11.6477 14.3986 11.6333 14.4256 11.6216 14.4536C11.61 14.4816 11.6011 14.5109 11.595 14.5408C11.589 14.5711 11.5862 14.6014 11.5862 14.6321C11.5862 14.6624 11.589 14.6927 11.595 14.723C11.6011 14.7528 11.61 14.7822 11.6216 14.8102C11.6333 14.8381 11.6477 14.8652 11.6645 14.8908C11.6817 14.916 11.7008 14.9397 11.7223 14.9617C11.7442 14.9831 11.768 15.0022 11.7931 15.0195C11.8188 15.0362 11.8458 15.0507 11.8738 15.0623C11.9017 15.074 11.9311 15.0828 11.9609 15.0889C11.9912 15.095 12.0215 15.0982 12.0523 15.0982C12.0826 15.0982 12.1134 15.095 12.1432 15.0889C12.173 15.0828 12.2024 15.074 12.2304 15.0623C12.2583 15.0507 12.2854 15.0362 12.311 15.0195C12.3362 15.0022 12.3604 14.9831 12.3818 14.9617C12.4033 14.9397 12.4224 14.916 12.4396 14.8908C12.4564 14.8652 12.4709 14.8381 12.4825 14.8102C12.4942 14.7822 12.503 14.7528 12.5091 14.723C12.5151 14.6927 12.5179 14.6624 12.5179 14.6321C12.5179 14.6013 12.5151 14.571 12.5091 14.5408Z" fill="#ED1E79"/>
</svg>
