<?xml version="1.0" encoding="utf-8"?>
<!-- Generator: Adobe Illustrator 19.0.0, SVG Export Plug-In . SVG Version: 6.00 Build 0)  -->
<svg version="1.1" id="Layer_1" xmlns="http://www.w3.org/2000/svg" xmlns:xlink="http://www.w3.org/1999/xlink" x="0px" y="0px"
	 viewBox="-363 -220 512 512" style="enable-background:new -363 -220 512 512;" xml:space="preserve">
<g>
	<g>
		<path d="M37.4-44.2c-1.7-3.4-4.3-5.1-7.7-5.1H-71l99.8-157.9c1.7-2.6,1.7-6,0-8.5s-4.3-4.3-7.7-4.3h-136.5c-3.4,0-6,1.7-7.7,4.3
			l-128,256c-1.7,2.6-1.7,6,0,8.5s5.1,4.3,7.7,4.3h87.9L-251,280.9c-1.7,3.4,0,7.7,3.4,10.2c0.9,0.9,2.6,0.9,4.3,0.9
			c2.6,0,5.1-0.9,6.8-2.6L36.5-34.8C38.2-37.4,39.1-40.8,37.4-44.2z M-213.5,234.8L-135,47.1c0.9-2.6,0.9-5.1-0.9-7.7
			c-1.7-1.7-4.3-3.4-6.8-3.4h-87l119.5-238.9H5.8L-94.9-45.1c-1.7,2.6-1.7,6,0,8.5s4.3,4.3,7.7,4.3h99L-213.5,234.8z"/>
	</g>
</g>
</svg>
