<?xml version="1.0" encoding="utf-8"?>
<!-- Generator: Adobe Illustrator 18.0.0, SVG Export Plug-In . SVG Version: 6.00 Build 0)  -->
<!DOCTYPE svg PUBLIC "-//W3C//DTD SVG 1.1//EN" "http://www.w3.org/Graphics/SVG/1.1/DTD/svg11.dtd">
<svg version="1.1" id="Layer_1" xmlns="http://www.w3.org/2000/svg" xmlns:xlink="http://www.w3.org/1999/xlink" x="0px" y="0px"
	 viewBox="0 0 68.9 83.9" enable-background="new 0 0 68.9 83.9" xml:space="preserve">
<path fill="#E22779" d="M67,1.1H46.5c-0.5,0-0.9,0.4-1,0.8l-3,17.6H5.8c-0.6,0-1.2,0.4-1.4,1l-3.5,10c-0.2,0.5-0.1,1,0.2,1.4
	c0.3,0.4,0.7,0.6,1.2,0.6h5.4l4.9,49c0.1,0.8,0.7,1.4,1.5,1.4h36.1c0.8,0,1.4-0.6,1.5-1.4l4.9-49H62c0.5,0,0.9-0.2,1.2-0.6
	c0.3-0.4,0.4-0.9,0.2-1.4l-3.5-10c-0.2-0.6-0.8-1-1.4-1h-8.7l1.9-11.7H67c0.6,0,1-0.4,1-1V2.1C68,1.6,67.6,1.1,67,1.1z M12.4,48.8
	C12.4,48.8,12.4,48.8,12.4,48.8c2.1-0.4,4.1-0.1,5.9,1.1c1.7,1.1,2.9,2.8,3.4,4.9c0.4,2,0.1,4.1-1.1,5.8c-1.1,1.7-2.8,2.9-4.9,3.4
	c-0.6,0.1-1.2,0.2-1.8,0.2L12.4,48.8z M14.1,66.1c0.7,0,1.4-0.1,2-0.2c5.2-1.1,8.6-6.3,7.4-11.5c-0.5-2.5-2.1-4.7-4.2-6.1
	c-2.1-1.4-4.7-1.8-7.1-1.4l-0.6-5.7c3.5-0.4,6.9,0.4,9.9,2.4c3.4,2.2,5.8,5.7,6.7,9.7c1.8,8.3-3.5,16.5-11.8,18.2
	c-0.6,0.1-1.2,0.2-1.8,0.3L14.1,66.1z M48.9,79.9H15.5l-0.6-6.3c0.7-0.1,1.4-0.2,2-0.3c9.3-2,15.3-11.3,13.3-20.6
	c-1-4.5-3.7-8.4-7.6-10.9c-3.4-2.2-7.3-3.1-11.2-2.7l-0.7-7.5h43L48.9,79.9z M59.9,29.6h-4.6c0,0,0,0-0.1,0H8.4c0,0-0.1,0-0.1,0H4.4
	l2.4-7h50.6L59.9,29.6z M66,5.9H50.8c-0.5,0-0.9,0.4-1,0.8l-2,12.9h-3.2l2.8-16.5H66V5.9z"/>
</svg>
