<?xml version="1.0" encoding="utf-8"?>
<!-- Generator: Adobe Illustrator 18.0.0, SVG Export Plug-In . SVG Version: 6.00 Build 0)  -->
<!DOCTYPE svg PUBLIC "-//W3C//DTD SVG 1.1//EN" "http://www.w3.org/Graphics/SVG/1.1/DTD/svg11.dtd">
<svg version="1.1" id="Layer_1" xmlns="http://www.w3.org/2000/svg" xmlns:xlink="http://www.w3.org/1999/xlink" x="0px" y="0px"
	 viewBox="103.6 0 388.1 841.9" enable-background="new 103.6 0 388.1 841.9" xml:space="preserve">
<g>
	<path fill="#E12779" d="M482.5,335.6v-80.8c0-47.9-38.9-86.8-86.8-86.8h-29l4.8-55.6c0-0.1,0-0.3,0-0.4l3.6-42.5
		c0.1-1,0.1-2.1-0.1-3.1c-4.7-30-31-52.6-61.4-52.6h-30.9c-33.7,0-61.6,27.4-62.1,61.1c0,0.4,0,0.9,0,1.3l2.6,30.9
		c0,0.8,0.1,1.7,0.2,2.5l5,58.3h-29c-47.9,0-86.8,38.9-86.8,86.8v84.7c0,59,32.8,110.5,81.2,137.2l22.1,166.9
		c-42.8,11.1-67.5,30.2-68.5,53.4c-0.1,0.6-0.1,1.2-0.1,1.8v71.5c0,42.4,75.2,64.6,149.6,64.6c74.3,0,149.5-22.2,149.5-64.6v-71.5
		c0,0,0-0.1,0-0.1s0-0.1,0-0.1c0-23.6-24.4-43.2-67.4-54.7l22.5-169.1C449.9,447.1,482.5,395.1,482.5,335.6z M249.4,106.8
		c0-0.2,0-0.4,0-0.6l-2.6-31.3c0.6-19.3,16.7-34.9,36.1-34.9h30.9c17.1,0,32.1,12.4,35.4,29.1l-3.5,41.1c0,0.1,0,0.3,0,0.4
		l-4.9,57.5h-86L249.4,106.8z M138.8,339.6v-84.7c0-33.5,27.3-60.8,60.8-60.8h43c0.1,0,0.1,0,0.2,0c0.2,0,0.5,0,0.8,0h152.2
		c33.5,0,60.8,27.3,60.8,60.8v80.8c0,74.2-60.4,134.5-134.5,134.5h-15.6v-54.3c49.5-3,88.9-44.2,88.9-94.4c0-4.8-3.9-8.7-8.7-8.7
		c-4.8,0-8.7,3.9-8.7,8.7c0,42.7-34.7,77.4-77.4,77.4h-5.7c-42.7,0-77.4-34.7-77.4-77.4c0-4.8-3.9-8.7-8.7-8.7
		c-4.8,0-8.7,3.9-8.7,8.7c0,50.3,39.4,91.4,88.9,94.4v54.3h-19.6C197.4,470.2,138.8,411.6,138.8,339.6z M269.4,496.2H289v190h-41
		l-26.2-197.5C236.8,493.5,252.8,496.2,269.4,496.2z M297.1,808.8c-74.3,0-123.5-23.2-123.5-38.5v-39.1
		c27.3,18.1,76.3,27.6,123.5,27.6c47.2,0,96.2-9.5,123.5-27.5v39.1C420.5,785.6,371.3,808.8,297.1,808.8z M420.5,697.8
		c0,0.3,0,0.7,0,1c0,0.5,0,1,0.1,1.5v8.2c-14.1,17-62.2,32.9-123.5,32.9c-61.4,0-109.6-15.9-123.5-33v-7.5c0.1-0.7,0.2-1.4,0.2-2.1
		c0-0.3,0-0.7,0-1c0.9-8.3,16.9-20,45.9-28.1l4.1,31.3c0.9,6.5,6.4,11.3,12.9,11.3h122.1c6.5,0,12-4.8,12.9-11.3l4.1-31
		C404,678,419.6,689.6,420.5,697.8z M347.3,686.2h-40.9v-190h15.6c18.1,0,35.5-3.2,51.8-8.7L347.3,686.2z"/>
	<circle fill="#E12779" cx="323.4" cy="81.9" r="13"/>
	<circle fill="#E12779" cx="273.1" cy="81.9" r="13"/>
	<path fill="#E12779" d="M323.5,121.3h-50.3c-4.8,0-8.7,3.9-8.7,8.7c0,4.8,3.9,8.7,8.7,8.7h50.3c4.8,0,8.7-3.9,8.7-8.7
		C332.1,125.2,328.2,121.3,323.5,121.3z"/>
</g>
</svg>
